# Blender v2.78 (sub 0) OBJ File: 'drainage.blend'
# www.blender.org
g floodPiece.005_Circle.017
v 0.853424 0.296445 -0.000000
v 0.844488 0.302548 -0.000000
v 0.743220 0.296445 -0.419555
v 0.733595 0.296445 -0.423542
v 0.735626 0.302548 -0.414834
v -0.000000 0.296527 -0.000000
v 0.031933 0.302548 0.008556
v 0.031933 0.302548 -0.008557
v 0.743220 0.296445 0.419554
v 0.735626 0.302548 0.414834
v 0.733595 0.296445 0.423541
v 0.853424 0.277850 -0.000000
v 0.844488 0.271747 -0.000000
v 0.743220 0.277850 -0.419555
v 0.735626 0.271747 -0.414834
v 0.733595 0.277850 -0.423542
v -0.000000 0.277854 -0.000000
v 0.031933 0.271747 -0.008557
v 0.031933 0.271747 0.008556
v 0.743220 0.277850 0.419554
v 0.733595 0.277850 0.423541
v 0.735626 0.271747 0.414834
vt 0.3090 0.6985
vt 0.3030 0.6954
vt 0.3766 0.5524
vt 0.3832 0.5558
vt 0.2397 0.8425
vt 0.3125 0.7003
vt 0.5741 0.8392
vt 0.2996 0.6936
vt 0.0379 0.5547
vt 0.3723 0.5514
vt 0.2256 0.8352
vt 0.0350 0.5604
vt 0.6915 0.0166
vt 0.6915 0.0237
vt 0.3887 0.0248
vt 0.3890 0.0153
vt 0.3865 0.5587
vt 0.5771 0.8335
vt 0.2355 0.8415
vt 0.2288 0.8381
vt 0.9943 0.0151
vt 0.9940 0.0246
vt 0.9996 0.0139
vt 0.9946 0.0097
vt 0.6857 0.0107
vt 0.6973 0.0107
vt 0.3830 0.0143
vt 0.3884 0.0097
vt 1.0000 0.0256
vt 0.9946 0.0302
vt 0.6973 0.0296
vt 0.6858 0.0296
vt 0.3833 0.0260
vt 0.3883 0.0302
vn 0.9672 0.0000 -0.2541
vn 0.0000 1.0000 0.0000
vn 0.0000 -1.0000 0.0000
vn -0.5000 0.0000 0.8660
vn 0.9672 0.0000 0.2541
vn -0.5000 0.0000 -0.8660
vn 0.2461 0.7658 -0.5941
vn -0.1853 0.9827 0.0000
vn 0.2461 0.7658 0.5941
vn 0.2461 -0.7658 -0.5941
vn -0.1878 -0.9822 0.0000
vn 0.2461 -0.7658 0.5941
vn 0.5600 0.8153 0.1470
vn 0.5600 0.8153 -0.1470
vn -0.2890 0.8159 0.5007
vn -0.2890 0.8159 -0.5007
vn 0.5600 -0.8153 0.1470
vn 0.5600 -0.8153 -0.1470
vn -0.2904 -0.8140 0.5030
vn -0.2904 -0.8140 -0.5030
vn 0.3827 0.0000 -0.9239
vn 0.3827 0.0000 0.9239
s off
f 1/1/1 12/2/1 14/3/1 3/4/1
f 10/5/2 2/6/2 7/7/2
f 13/8/3 18/9/3 15/10/3
f 22/11/3 19/12/3 13/8/3
f 6/13/4 17/14/4 21/15/4 11/16/4
f 2/6/2 5/17/2 8/18/2
f 9/19/5 20/20/5 12/2/5 1/1/5
f 4/21/6 16/22/6 17/14/6 6/13/6
f 3/23/7 4/21/7 5/24/7
f 6/13/8 7/25/8 8/26/8
f 9/27/9 10/28/9 11/16/9
f 14/29/10 15/30/10 16/22/10
f 17/14/11 18/31/11 19/32/11
f 20/33/12 21/15/12 22/34/12
f 2/6/13 10/5/13 9/19/13 1/1/13
f 5/17/14 2/6/14 1/1/14 3/4/14
f 6/13/15 11/16/15 10/28/15 7/25/15
f 2/6/2 8/18/2 7/7/2
f 4/21/16 6/13/16 8/26/16 5/24/16
f 12/2/17 20/20/17 22/11/17 13/8/17
f 14/3/18 12/2/18 13/8/18 15/10/18
f 19/32/19 22/34/19 21/15/19 17/14/19
f 13/8/3 19/12/3 18/9/3
f 15/30/20 18/31/20 17/14/20 16/22/20
f 16/22/21 4/21/21 3/23/21 14/29/21
f 20/33/22 9/27/22 11/16/22 21/15/22
g floodPiece.004_Circle.016
v 0.008265 0.296445 0.853424
v 0.008557 0.302548 0.844488
v 0.000000 0.296445 0.847082
v 0.426712 0.296445 0.739087
v 0.422244 0.302548 0.731348
v 0.734955 0.296445 0.433869
v 0.733595 0.296445 0.423541
v 0.727070 0.302548 0.429654
v -0.000000 0.296527 -0.000000
v 0.008556 0.302548 0.031933
v 0.023376 0.302548 0.023376
v 0.008265 0.277850 0.853424
v 0.000000 0.277850 0.847082
v 0.008557 0.271747 0.844488
v 0.426712 0.277850 0.739087
v 0.422244 0.271747 0.731348
v 0.734955 0.277850 0.433869
v 0.727070 0.271747 0.429654
v 0.733595 0.277850 0.423541
v -0.000000 0.277854 -0.000000
v 0.023376 0.271747 0.023376
v 0.008556 0.271747 0.031933
vt 0.6915 0.0166
vt 0.6915 0.0237
vt 0.3887 0.0248
vt 0.3890 0.0153
vt 0.3090 0.6985
vt 0.3030 0.6954
vt 0.3766 0.5524
vt 0.3832 0.5558
vt 0.2996 0.6936
vt 0.0379 0.5547
vt 0.3723 0.5514
vt 0.2355 0.8415
vt 0.2288 0.8381
vt 0.9943 0.0151
vt 0.9940 0.0246
vt 0.2256 0.8352
vt 0.0350 0.5603
vt 0.3125 0.7003
vt 0.3865 0.5587
vt 0.5771 0.8335
vt 0.3830 0.0143
vt 0.3884 0.0097
vt 0.9996 0.0139
vt 0.9946 0.0097
vt 0.6857 0.0107
vt 0.6973 0.0107
vt 0.3833 0.0260
vt 0.3883 0.0302
vt 1.0000 0.0256
vt 0.9946 0.0302
vt 0.6973 0.0296
vt 0.6858 0.0296
vt 0.2397 0.8425
vt 0.5741 0.8392
vn -1.0000 0.0000 0.0000
vn 0.7036 0.0000 0.7106
vn 0.0000 -1.0000 -0.0000
vn 0.2636 0.0000 0.9646
vn 0.5000 0.0000 -0.8660
vn 0.0000 1.0000 -0.0000
vn -0.3915 0.7658 0.5102
vn 0.6376 0.7658 -0.0839
vn -0.0926 0.9827 -0.1605
vn -0.3915 -0.7658 0.5102
vn 0.6376 -0.7658 -0.0839
vn -0.0939 -0.9822 -0.1627
vn 0.1527 0.8153 0.5585
vn 0.4074 0.8153 0.4115
vn 0.2891 0.8159 -0.5007
vn -0.5781 0.8159 0.0000
vn 0.1527 -0.8153 0.5585
vn 0.4074 -0.8153 0.4115
vn 0.2904 -0.8140 -0.5030
vn -0.5808 -0.8140 -0.0000
vn -0.6088 0.0000 0.7934
vn 0.9914 0.0000 -0.1305
s off
f 31/35/23 42/36/23 35/37/23 25/38/23
f 26/39/24 37/40/24 39/41/24 28/42/24
f 38/43/25 43/44/25 40/45/25
f 23/46/26 34/47/26 37/40/26 26/39/26
f 29/48/27 41/49/27 42/36/27 31/35/27
f 36/50/25 44/51/25 38/43/25
f 27/52/28 30/53/28 33/54/28
f 23/55/29 24/56/29 25/38/29
f 28/57/30 29/48/30 30/58/30
f 31/35/31 32/59/31 33/60/31
f 34/61/32 35/37/32 36/62/32
f 39/63/33 40/64/33 41/49/33
f 42/36/34 43/65/34 44/66/34
f 27/52/35 24/67/35 23/46/35 26/39/35
f 30/53/36 27/52/36 26/39/36 28/42/36
f 33/60/37 30/58/37 29/48/37 31/35/37
f 24/56/38 32/59/38 31/35/38 25/38/38
f 27/52/28 33/54/28 32/68/28
f 37/40/39 34/47/39 36/50/39 38/43/39
f 39/41/40 37/40/40 38/43/40 40/45/40
f 42/36/41 41/49/41 40/64/41 43/65/41
f 35/37/42 42/36/42 44/66/42 36/62/42
f 38/43/25 44/51/25 43/44/25
f 25/38/43 35/37/43 34/61/43 23/55/43
f 28/57/44 39/63/44 41/49/44 29/48/44
f 24/67/28 27/52/28 32/68/28
g floodPiece.003_Circle.015
v -0.426712 0.296445 0.739087
v -0.422244 0.302548 0.731348
v -0.000000 0.296527 -0.000000
v -0.023377 0.302548 0.023376
v -0.008556 0.302548 0.031933
v -0.008265 0.296445 0.853424
v -0.000000 0.296445 0.847082
v -0.008556 0.302548 0.844488
v -0.734955 0.296445 0.433870
v -0.727070 0.302548 0.429654
v -0.733595 0.296445 0.423541
v -0.426712 0.277850 0.739087
v -0.422244 0.271747 0.731348
v -0.000000 0.277854 -0.000000
v -0.008556 0.271747 0.031933
v -0.023377 0.271747 0.023376
v -0.008265 0.277850 0.853424
v -0.008556 0.271747 0.844488
v -0.000000 0.277850 0.847082
v -0.734955 0.277850 0.433870
v -0.733595 0.277850 0.423541
v -0.727070 0.271747 0.429654
vt 0.3030 0.6954
vt 0.3090 0.6985
vt 0.2355 0.8415
vt 0.2288 0.8381
vt 0.3723 0.5514
vt 0.2996 0.6936
vt 0.0379 0.5547
vt 0.3865 0.5587
vt 0.5771 0.8335
vt 0.3125 0.7003
vt 0.5741 0.8392
vt 0.2397 0.8425
vt 0.2256 0.8352
vt 0.0350 0.5603
vt 0.3766 0.5524
vt 0.3832 0.5558
vt 0.3887 0.0248
vt 0.3889 0.0153
vt 0.6914 0.0162
vt 0.6914 0.0232
vt 0.9943 0.0151
vt 0.9940 0.0246
vt 0.6972 0.0292
vt 0.6856 0.0292
vt 0.3834 0.0260
vt 0.3884 0.0302
vt 1.0000 0.0256
vt 0.9946 0.0302
vt 0.6857 0.0103
vt 0.6972 0.0103
vt 0.3830 0.0143
vt 0.3883 0.0097
vt 0.9996 0.0139
vt 0.9946 0.0097
vn -0.2636 0.0000 0.9646
vn 0.0000 1.0000 -0.0000
vn 0.0000 -1.0000 0.0000
vn -0.7036 0.0000 0.7106
vn 1.0000 0.0000 -0.0000
vn -0.5000 0.0000 -0.8660
vn 0.0926 0.9827 -0.1605
vn 0.3915 0.7658 0.5102
vn -0.6376 0.7658 -0.0839
vn 0.0939 -0.9822 -0.1627
vn 0.3915 -0.7658 0.5102
vn -0.6376 -0.7658 -0.0839
vn -0.4074 0.8153 0.4115
vn -0.1527 0.8153 0.5585
vn 0.5781 0.8159 0.0000
vn -0.2891 0.8159 -0.5007
vn -0.4074 -0.8153 0.4115
vn -0.1527 -0.8153 0.5585
vn 0.5808 -0.8140 -0.0000
vn -0.2904 -0.8140 -0.5030
vn -0.9914 0.0000 -0.1305
vn 0.6088 0.0000 0.7934
s off
f 45/69/45 56/70/45 61/71/45 50/72/45
f 54/73/46 46/74/46 48/75/46
f 66/76/47 60/77/47 57/78/47
f 57/78/47 59/79/47 62/80/47
f 46/74/46 52/81/46 49/82/46
f 53/83/48 64/84/48 56/70/48 45/69/48
f 51/85/49 63/86/49 58/87/49 47/88/49
f 47/88/50 58/87/50 65/89/50 55/90/50
f 47/88/51 48/91/51 49/92/51
f 50/93/52 51/85/52 52/94/52
f 53/95/53 54/96/53 55/90/53
f 58/87/54 59/97/54 60/98/54
f 61/99/55 62/100/55 63/86/55
f 64/101/56 65/89/56 66/102/56
f 46/74/57 54/73/57 53/83/57 45/69/57
f 52/81/58 46/74/58 45/69/58 50/72/58
f 49/92/59 52/94/59 51/85/59 47/88/59
f 54/96/60 48/91/60 47/88/60 55/90/60
f 46/74/46 49/82/46 48/75/46
f 56/70/61 64/84/61 66/76/61 57/78/61
f 61/71/62 56/70/62 57/78/62 62/80/62
f 58/87/63 63/86/63 62/100/63 59/97/63
f 65/89/64 58/87/64 60/98/64 66/102/64
f 57/78/47 60/77/47 59/79/47
f 64/101/65 53/95/65 55/90/65 65/89/65
f 50/93/66 61/99/66 63/86/66 51/85/66
g floodPiece.002_Circle.014
v -0.853425 0.296445 -0.000000
v -0.844488 0.302548 0.000000
v -0.743220 0.296445 0.419555
v -0.733595 0.296445 0.423541
v -0.735626 0.302548 0.414834
v -0.000000 0.296527 -0.000000
v -0.031933 0.302548 -0.008557
v -0.031933 0.302548 0.008556
v -0.743220 0.296445 -0.419555
v -0.735627 0.302548 -0.414834
v -0.733595 0.296445 -0.423541
v -0.853425 0.277850 -0.000000
v -0.844488 0.271747 0.000000
v -0.743220 0.277850 0.419555
v -0.735626 0.271747 0.414834
v -0.733595 0.277850 0.423541
v -0.000000 0.277854 -0.000000
v -0.031933 0.271747 0.008556
v -0.031933 0.271747 -0.008557
v -0.743220 0.277850 -0.419555
v -0.733595 0.277850 -0.423541
v -0.735627 0.271747 -0.414834
vt 0.3030 0.6954
vt 0.3090 0.6985
vt 0.2355 0.8415
vt 0.2288 0.8380
vt 0.3724 0.5514
vt 0.2996 0.6936
vt 0.0379 0.5547
vt 0.3125 0.7003
vt 0.5741 0.8392
vt 0.2397 0.8425
vt 0.3865 0.5587
vt 0.5771 0.8335
vt 0.6914 0.0232
vt 0.6914 0.0162
vt 0.9943 0.0151
vt 0.9940 0.0246
vt 0.2256 0.8352
vt 0.0350 0.5603
vt 0.3766 0.5524
vt 0.3832 0.5558
vt 0.3887 0.0248
vt 0.3889 0.0153
vt 0.3834 0.0260
vt 0.3884 0.0302
vt 0.6972 0.0291
vt 0.6856 0.0292
vt 1.0000 0.0256
vt 0.9945 0.0302
vt 0.3830 0.0143
vt 0.3883 0.0097
vt 0.6857 0.0103
vt 0.6972 0.0103
vt 0.9996 0.0139
vt 0.9946 0.0097
vn -0.9672 0.0000 0.2541
vn 0.0000 1.0000 0.0000
vn 0.0000 -1.0000 0.0000
vn 0.5000 0.0000 -0.8660
vn -0.9672 0.0000 -0.2541
vn 0.5000 0.0000 0.8660
vn -0.2461 0.7658 0.5941
vn 0.1853 0.9827 -0.0000
vn -0.2461 0.7658 -0.5941
vn -0.2461 -0.7658 0.5941
vn 0.1878 -0.9822 0.0000
vn -0.2461 -0.7658 -0.5941
vn -0.5600 0.8153 -0.1470
vn -0.5600 0.8153 0.1470
vn 0.2890 0.8159 -0.5007
vn 0.2890 0.8159 0.5007
vn -0.5600 -0.8153 -0.1470
vn -0.5600 -0.8153 0.1470
vn 0.2904 -0.8140 -0.5030
vn 0.2904 -0.8140 0.5030
vn -0.3827 0.0000 0.9239
vn -0.3827 0.0000 -0.9239
s off
f 67/103/67 78/104/67 80/105/67 69/106/67
f 76/107/68 68/108/68 73/109/68
f 79/110/69 84/111/69 81/112/69
f 88/113/69 85/114/69 79/110/69
f 72/115/70 83/116/70 87/117/70 77/118/70
f 68/108/68 71/119/68 74/120/68
f 75/121/71 86/122/71 78/104/71 67/103/71
f 70/123/72 82/124/72 83/116/72 72/115/72
f 69/125/73 70/123/73 71/126/73
f 72/115/74 73/127/74 74/128/74
f 75/129/75 76/130/75 77/118/75
f 80/131/76 81/132/76 82/124/76
f 83/116/77 84/133/77 85/134/77
f 86/135/78 87/117/78 88/136/78
f 68/108/79 76/107/79 75/121/79 67/103/79
f 71/119/80 68/108/80 67/103/80 69/106/80
f 72/115/81 77/118/81 76/130/81 73/127/81
f 68/108/68 74/120/68 73/109/68
f 70/123/82 72/115/82 74/128/82 71/126/82
f 78/104/83 86/122/83 88/113/83 79/110/83
f 80/105/84 78/104/84 79/110/84 81/112/84
f 85/134/85 88/136/85 87/117/85 83/116/85
f 79/110/69 85/114/69 84/111/69
f 81/132/86 84/133/86 83/116/86 82/124/86
f 82/124/87 70/123/87 69/125/87 80/131/87
f 86/135/88 75/129/88 77/118/88 87/117/88
g floodPiece.001_Circle.013
v -0.008265 0.296445 -0.853425
v -0.008557 0.302548 -0.844489
v -0.000000 0.296445 -0.847083
v -0.426713 0.296445 -0.739087
v -0.422245 0.302548 -0.731348
v -0.734955 0.296445 -0.433870
v -0.733595 0.296445 -0.423541
v -0.727070 0.302548 -0.429654
v -0.000000 0.296527 -0.000000
v -0.008556 0.302548 -0.031933
v -0.023377 0.302548 -0.023377
v -0.008265 0.277850 -0.853425
v -0.000000 0.277850 -0.847083
v -0.008557 0.271747 -0.844489
v -0.426713 0.277850 -0.739087
v -0.422245 0.271747 -0.731348
v -0.734955 0.277850 -0.433870
v -0.727070 0.271747 -0.429654
v -0.733595 0.277850 -0.423541
v -0.000000 0.277854 -0.000000
v -0.023377 0.271747 -0.023377
v -0.008556 0.271747 -0.031933
vt 0.6914 0.0232
vt 0.6914 0.0162
vt 0.9943 0.0151
vt 0.9940 0.0246
vt 0.3030 0.6954
vt 0.3090 0.6985
vt 0.2355 0.8415
vt 0.2288 0.8380
vt 0.3125 0.7003
vt 0.5741 0.8392
vt 0.2397 0.8425
vt 0.3766 0.5524
vt 0.3832 0.5558
vt 0.3887 0.0248
vt 0.3889 0.0153
vt 0.3865 0.5587
vt 0.5771 0.8335
vt 0.2996 0.6936
vt 0.2256 0.8352
vt 0.0350 0.5603
vt 1.0000 0.0256
vt 0.9946 0.0302
vt 0.3834 0.0260
vt 0.3884 0.0302
vt 0.6972 0.0291
vt 0.6856 0.0292
vt 0.9996 0.0139
vt 0.9946 0.0097
vt 0.3830 0.0143
vt 0.3883 0.0097
vt 0.6857 0.0103
vt 0.6972 0.0103
vt 0.3723 0.5514
vt 0.0379 0.5547
vn 1.0000 0.0000 -0.0000
vn -0.7036 0.0000 -0.7106
vn 0.0000 -1.0000 0.0000
vn -0.2636 0.0000 -0.9646
vn -0.5000 0.0000 0.8660
vn 0.0000 1.0000 0.0000
vn 0.3915 0.7658 -0.5102
vn -0.6376 0.7658 0.0839
vn 0.0926 0.9827 0.1605
vn 0.3915 -0.7658 -0.5102
vn -0.6376 -0.7658 0.0839
vn 0.0939 -0.9822 0.1627
vn -0.1527 0.8153 -0.5585
vn -0.4074 0.8153 -0.4115
vn -0.2891 0.8159 0.5007
vn 0.5781 0.8159 -0.0000
vn -0.1527 -0.8153 -0.5585
vn -0.4074 -0.8153 -0.4115
vn -0.2904 -0.8140 0.5030
vn 0.5808 -0.8140 0.0000
vn 0.6088 0.0000 -0.7934
vn -0.9914 0.0000 0.1305
s off
f 97/137/89 108/138/89 101/139/89 91/140/89
f 92/141/90 103/142/90 105/143/90 94/144/90
f 104/145/91 109/146/91 106/147/91
f 89/148/92 100/149/92 103/142/92 92/141/92
f 95/150/93 107/151/93 108/138/93 97/137/93
f 102/152/91 110/153/91 104/145/91
f 93/154/94 96/155/94 99/156/94
f 89/157/95 90/158/95 91/140/95
f 94/159/96 95/150/96 96/160/96
f 97/137/97 98/161/97 99/162/97
f 100/163/98 101/139/98 102/164/98
f 105/165/99 106/166/99 107/151/99
f 108/138/100 109/167/100 110/168/100
f 93/154/101 90/169/101 89/148/101 92/141/101
f 96/155/102 93/154/102 92/141/102 94/144/102
f 99/162/103 96/160/103 95/150/103 97/137/103
f 90/158/104 98/161/104 97/137/104 91/140/104
f 93/154/94 99/156/94 98/170/94
f 103/142/105 100/149/105 102/152/105 104/145/105
f 105/143/106 103/142/106 104/145/106 106/147/106
f 108/138/107 107/151/107 106/166/107 109/167/107
f 101/139/108 108/138/108 110/168/108 102/164/108
f 104/145/91 110/153/91 109/146/91
f 91/140/109 101/139/109 100/163/109 89/157/109
f 94/159/110 105/165/110 107/151/110 95/150/110
f 90/169/94 93/154/94 98/170/94
g floodPiece_Circle.012
v 0.426712 0.296445 -0.739088
v 0.422244 0.302548 -0.731349
v -0.000000 0.296527 -0.000000
v 0.023376 0.302548 -0.023377
v 0.008556 0.302548 -0.031933
v 0.008265 0.296445 -0.853425
v 0.000000 0.296445 -0.847083
v 0.008556 0.302548 -0.844488
v 0.734955 0.296445 -0.433870
v 0.727070 0.302548 -0.429655
v 0.733595 0.296445 -0.423542
v 0.426712 0.277850 -0.739088
v 0.422244 0.271747 -0.731349
v -0.000000 0.277854 -0.000000
v 0.008556 0.271747 -0.031933
v 0.023376 0.271747 -0.023377
v 0.008265 0.277850 -0.853425
v 0.008556 0.271747 -0.844488
v 0.000000 0.277850 -0.847083
v 0.734955 0.277850 -0.433870
v 0.733595 0.277850 -0.423542
v 0.727070 0.271747 -0.429655
vt 0.3090 0.6985
vt 0.3030 0.6954
vt 0.3766 0.5524
vt 0.3832 0.5558
vt 0.2397 0.8425
vt 0.3125 0.7003
vt 0.5741 0.8392
vt 0.2256 0.8352
vt 0.0350 0.5603
vt 0.2996 0.6936
vt 0.0379 0.5547
vt 0.3724 0.5514
vt 0.3865 0.5587
vt 0.5771 0.8335
vt 0.2355 0.8415
vt 0.2288 0.8380
vt 0.9943 0.0151
vt 0.9940 0.0246
vt 0.6915 0.0237
vt 0.6915 0.0166
vt 0.3887 0.0248
vt 0.3890 0.0153
vt 0.6857 0.0107
vt 0.6973 0.0107
vt 0.9996 0.0139
vt 0.9946 0.0097
vt 0.3830 0.0143
vt 0.3884 0.0097
vt 0.6973 0.0296
vt 0.6858 0.0296
vt 1.0000 0.0256
vt 0.9946 0.0302
vt 0.3833 0.0260
vt 0.3883 0.0302
vn 0.2636 0.0000 -0.9646
vn 0.0000 1.0000 -0.0000
vn 0.0000 -1.0000 0.0000
vn 0.7036 0.0000 -0.7106
vn -1.0000 0.0000 -0.0000
vn 0.5000 0.0000 0.8660
vn -0.0926 0.9827 0.1605
vn -0.3915 0.7658 -0.5102
vn 0.6376 0.7658 0.0839
vn -0.0939 -0.9822 0.1627
vn -0.3915 -0.7658 -0.5102
vn 0.6376 -0.7658 0.0839
vn 0.4074 0.8153 -0.4115
vn 0.1527 0.8153 -0.5585
vn -0.5781 0.8159 -0.0000
vn 0.2891 0.8159 0.5007
vn 0.4074 -0.8153 -0.4115
vn 0.1527 -0.8153 -0.5585
vn -0.5808 -0.8140 0.0000
vn 0.2904 -0.8140 0.5030
vn 0.9914 0.0000 0.1305
vn -0.6088 0.0000 -0.7933
s off
f 111/171/111 122/172/111 127/173/111 116/174/111
f 120/175/112 112/176/112 114/177/112
f 132/178/113 126/179/113 123/180/113
f 123/180/113 125/181/113 128/182/113
f 112/176/112 118/183/112 115/184/112
f 119/185/114 130/186/114 122/172/114 111/171/114
f 117/187/115 129/188/115 124/189/115 113/190/115
f 113/190/116 124/189/116 131/191/116 121/192/116
f 113/190/117 114/193/117 115/194/117
f 116/195/118 117/187/118 118/196/118
f 119/197/119 120/198/119 121/192/119
f 124/189/120 125/199/120 126/200/120
f 127/201/121 128/202/121 129/188/121
f 130/203/122 131/191/122 132/204/122
f 112/176/123 120/175/123 119/185/123 111/171/123
f 118/183/124 112/176/124 111/171/124 116/174/124
f 115/194/125 118/196/125 117/187/125 113/190/125
f 120/198/126 114/193/126 113/190/126 121/192/126
f 112/176/112 115/184/112 114/177/112
f 122/172/127 130/186/127 132/178/127 123/180/127
f 127/173/128 122/172/128 123/180/128 128/182/128
f 124/189/129 129/188/129 128/202/129 125/199/129
f 131/191/130 124/189/130 126/200/130 132/204/130
f 123/180/113 126/179/113 125/181/113
f 130/203/131 119/197/131 121/192/131 131/191/131
f 116/195/132 127/201/132 129/188/132 117/187/132
g frame_Circle.008
v 0.000000 0.000000 -1.000000
v -0.222521 0.000000 -0.974928
v -0.433884 0.000000 -0.900969
v -0.623490 0.000000 -0.781831
v -0.781832 0.000000 -0.623490
v -0.900969 0.000000 -0.433884
v -0.974928 0.000000 -0.222521
v -1.000000 0.000000 -0.000000
v -0.974928 0.000000 0.222521
v -0.900969 0.000000 0.433884
v -0.781832 0.000000 0.623490
v -0.623490 0.000000 0.781832
v -0.433884 0.000000 0.900969
v -0.222521 0.000000 0.974928
v 0.000000 0.000000 1.000000
v 0.222521 0.000000 0.974928
v 0.433884 0.000000 0.900969
v 0.623490 0.000000 0.781831
v 0.781832 0.000000 0.623489
v 0.900969 0.000000 0.433883
v 0.974928 0.000000 0.222520
v 1.000000 0.000000 -0.000001
v 0.974928 0.000000 -0.222522
v 0.900968 0.000000 -0.433885
v 0.781831 0.000000 -0.623491
v 0.623489 0.000000 -0.781832
v 0.433882 0.000000 -0.900970
v 0.222519 0.000000 -0.974928
v 0.000000 0.112435 -1.000000
v -0.222521 0.112435 -0.974928
v -0.433884 0.112435 -0.900969
v -0.623490 0.112435 -0.781831
v -0.781832 0.112435 -0.623490
v -0.900969 0.112435 -0.433884
v -0.974928 0.112435 -0.222521
v -1.000000 0.112435 -0.000000
v -0.974928 0.112435 0.222521
v -0.900969 0.112435 0.433884
v -0.781832 0.112435 0.623490
v -0.623490 0.112435 0.781832
v -0.433884 0.112435 0.900969
v -0.222521 0.112435 0.974928
v 0.000000 0.112435 1.000000
v 0.222521 0.112435 0.974928
v 0.433884 0.112435 0.900969
v 0.623490 0.112435 0.781831
v 0.781832 0.112435 0.623489
v 0.900969 0.112435 0.433883
v 0.974928 0.112435 0.222520
v 1.000000 0.112435 -0.000001
v 0.974928 0.112435 -0.222522
v 0.900968 0.112435 -0.433885
v 0.781831 0.112435 -0.623491
v 0.623489 0.112435 -0.781832
v 0.433882 0.112435 -0.900970
v 0.222519 0.112435 -0.974928
v -0.000000 0.112435 -0.874221
v -0.194533 0.112435 -0.852303
v -0.379310 0.112435 -0.787646
v -0.545068 0.112435 -0.683494
v -0.683494 0.112435 -0.545068
v -0.787646 0.112435 -0.379310
v -0.852303 0.112435 -0.194533
v -0.874221 0.112435 -0.000000
v -0.852303 0.112435 0.194532
v -0.787646 0.112435 0.379310
v -0.683494 0.112435 0.545068
v -0.545068 0.112435 0.683494
v -0.379310 0.112435 0.787646
v -0.194532 0.112435 0.852303
v 0.000000 0.112435 0.874221
v 0.194533 0.112435 0.852303
v 0.379311 0.112435 0.787646
v 0.545069 0.112435 0.683493
v 0.683494 0.112435 0.545068
v 0.787647 0.112435 0.379310
v 0.852303 0.112435 0.194532
v 0.874221 0.112435 -0.000001
v 0.852303 0.112435 -0.194533
v 0.787646 0.112435 -0.379311
v 0.683493 0.112435 -0.545069
v 0.545067 0.112435 -0.683495
v 0.379309 0.112435 -0.787647
v 0.194531 0.112435 -0.852303
v -0.000000 0.330870 -0.874221
v -0.194533 0.330870 -0.852303
v -0.379310 0.330870 -0.787646
v -0.545068 0.330870 -0.683494
v -0.683494 0.330870 -0.545068
v -0.787646 0.330870 -0.379310
v -0.852303 0.330870 -0.194533
v -0.874221 0.330870 -0.000000
v -0.852303 0.330870 0.194532
v -0.787646 0.330870 0.379310
v -0.683494 0.330870 0.545068
v -0.545068 0.330870 0.683494
v -0.379310 0.330870 0.787646
v -0.194532 0.330870 0.852303
v 0.000000 0.330870 0.874221
v 0.194533 0.330870 0.852303
v 0.379311 0.330870 0.787646
v 0.545069 0.330870 0.683493
v 0.683494 0.330870 0.545068
v 0.787647 0.330870 0.379310
v 0.852303 0.330870 0.194532
v 0.874221 0.330870 -0.000001
v 0.852303 0.330870 -0.194533
v 0.787646 0.330870 -0.379311
v 0.683493 0.330870 -0.545069
v 0.545067 0.330870 -0.683495
v 0.379309 0.330870 -0.787647
v 0.194531 0.330870 -0.852303
v -0.000000 0.330870 -0.800277
v -0.178078 0.330870 -0.780212
v -0.347227 0.330870 -0.721025
v -0.498964 0.330870 -0.625682
v -0.625682 0.330870 -0.498965
v -0.721025 0.330870 -0.347227
v -0.780212 0.330870 -0.178078
v -0.800277 0.330870 -0.000000
v -0.780212 0.330870 0.178078
v -0.721025 0.330870 0.347227
v -0.625682 0.330870 0.498964
v -0.498964 0.330870 0.625682
v -0.347227 0.330870 0.721025
v -0.178078 0.330870 0.780212
v 0.000000 0.330870 0.800277
v 0.178079 0.330870 0.780212
v 0.347228 0.330870 0.721024
v 0.498965 0.330870 0.625681
v 0.625682 0.330870 0.498964
v 0.721025 0.330870 0.347227
v 0.780212 0.330870 0.178078
v 0.800277 0.330870 -0.000001
v 0.780212 0.330870 -0.178079
v 0.721024 0.330870 -0.347228
v 0.625681 0.330870 -0.498965
v 0.498964 0.330870 -0.625682
v 0.347226 0.330870 -0.721025
v 0.178077 0.330870 -0.780213
v -0.000000 0.006167 -0.800277
v -0.178078 0.006167 -0.780212
v -0.347227 0.006167 -0.721025
v -0.498964 0.006167 -0.625682
v -0.625682 0.006167 -0.498965
v -0.721025 0.006167 -0.347227
v -0.780212 0.006167 -0.178078
v -0.800277 0.006167 -0.000000
v -0.780212 0.006167 0.178078
v -0.721025 0.006167 0.347227
v -0.625682 0.006167 0.498964
v -0.498964 0.006167 0.625682
v -0.347227 0.006167 0.721025
v -0.178078 0.006167 0.780212
v 0.000000 0.006167 0.800277
v 0.178079 0.006167 0.780212
v 0.347228 0.006167 0.721024
v 0.498965 0.006167 0.625681
v 0.625682 0.006167 0.498964
v 0.721025 0.006167 0.347227
v 0.780212 0.006167 0.178078
v 0.800277 0.006167 -0.000001
v 0.780212 0.006167 -0.178079
v 0.721024 0.006167 -0.347228
v 0.625681 0.006167 -0.498965
v 0.498964 0.006167 -0.625682
v 0.347226 0.006167 -0.721025
v 0.178077 0.006167 -0.780213
v -0.000000 0.203255 -0.853761
v -0.263827 0.203255 -0.811975
v -0.501828 0.203255 -0.690707
v -0.690707 0.203255 -0.501828
v -0.811975 0.203255 -0.263827
v -0.853761 0.203255 -0.000000
v -0.811975 0.203255 0.263827
v -0.690707 0.203255 0.501828
v -0.501828 0.203255 0.690707
v -0.263827 0.203255 0.811975
v 0.000000 0.203255 0.853761
v 0.263827 0.203255 0.811975
v 0.501829 0.203255 0.690707
v 0.690708 0.203255 0.501828
v 0.811975 0.203255 0.263826
v 0.853761 0.203255 -0.000001
v 0.811975 0.203255 -0.263828
v 0.690707 0.203255 -0.501829
v 0.501827 0.203255 -0.690708
v 0.263826 0.203255 -0.811976
v -0.000000 0.134950 -0.853761
v -0.263827 0.134950 -0.811975
v -0.501828 0.134950 -0.690707
v -0.690707 0.134950 -0.501828
v -0.811975 0.134950 -0.263827
v -0.853761 0.134950 -0.000000
v -0.811975 0.134950 0.263827
v -0.690707 0.134950 0.501828
v -0.501828 0.134950 0.690707
v -0.263827 0.134950 0.811975
v 0.000000 0.134950 0.853761
v 0.263827 0.134950 0.811975
v 0.501829 0.134950 0.690707
v 0.690708 0.134950 0.501828
v 0.811975 0.134950 0.263826
v 0.853761 0.134950 -0.000001
v 0.811975 0.134950 -0.263828
v 0.690707 0.134950 -0.501829
v 0.501827 0.134950 -0.690708
v 0.263826 0.134950 -0.811976
vt 0.1637 0.4781
vt 0.1739 0.4488
vt 0.2210 0.4595
vt 0.2176 0.4904
vt 0.2693 0.4595
vt 0.2728 0.4904
vt 0.3267 0.0123
vt 0.3164 0.0416
vt 0.2693 0.0308
vt 0.2728 0.0000
vt 0.1139 0.4541
vt 0.1304 0.4278
vt 0.3765 0.0363
vt 0.3599 0.0625
vt 0.0707 0.4197
vt 0.0927 0.3977
vt 0.4197 0.0707
vt 0.3977 0.0927
vt 0.0363 0.3765
vt 0.0625 0.3599
vt 0.4541 0.1139
vt 0.4278 0.1304
vt 0.0123 0.3267
vt 0.0416 0.3164
vt 0.4781 0.1637
vt 0.4488 0.1739
vt 0.0000 0.2728
vt 0.0308 0.2693
vt 0.4904 0.2176
vt 0.4595 0.2210
vt 0.0000 0.2176
vt 0.0308 0.2210
vt 0.4904 0.2728
vt 0.4595 0.2693
vt 0.0123 0.1637
vt 0.0416 0.1739
vt 0.4781 0.3267
vt 0.4488 0.3164
vt 0.0363 0.1139
vt 0.0625 0.1304
vt 0.4541 0.3765
vt 0.4278 0.3599
vt 0.0707 0.0707
vt 0.0927 0.0927
vt 0.4197 0.4197
vt 0.3977 0.3977
vt 0.1139 0.0363
vt 0.1304 0.0625
vt 0.3765 0.4541
vt 0.3599 0.4278
vt 0.1637 0.0123
vt 0.1739 0.0416
vt 0.3267 0.4781
vt 0.3164 0.4488
vt 0.2176 0.0000
vt 0.2210 0.0308
vt 0.9643 0.6238
vt 0.9462 0.6258
vt 0.9363 0.5827
vt 0.9536 0.5767
vt 0.5356 0.6238
vt 0.5537 0.6258
vt 0.5537 0.6700
vt 0.5356 0.6721
vt 0.9643 0.6721
vt 0.9462 0.6700
vt 0.5464 0.5767
vt 0.5636 0.5827
vt 0.9536 0.7192
vt 0.9363 0.7131
vt 0.5673 0.5332
vt 0.5828 0.5429
vt 0.9326 0.7627
vt 0.9172 0.7530
vt 0.5974 0.4954
vt 0.6103 0.5083
vt 0.9025 0.8004
vt 0.8896 0.7875
vt 0.6352 0.4653
vt 0.6449 0.4807
vt 0.8212 0.8515
vt 0.8152 0.8343
vt 0.8550 0.8151
vt 0.8647 0.8306
vt 0.6787 0.4443
vt 0.6847 0.4615
vt 0.7741 0.8623
vt 0.7721 0.8441
vt 0.7258 0.4336
vt 0.7279 0.4517
vt 0.7258 0.8623
vt 0.7279 0.8441
vt 0.7741 0.4336
vt 0.7721 0.4517
vt 0.6787 0.8515
vt 0.6847 0.8343
vt 0.8212 0.4443
vt 0.8152 0.4615
vt 0.6352 0.8306
vt 0.6449 0.8151
vt 0.8647 0.4653
vt 0.8550 0.4807
vt 0.5974 0.8004
vt 0.6103 0.7875
vt 0.9025 0.4954
vt 0.8896 0.5083
vt 0.5673 0.7627
vt 0.5828 0.7530
vt 0.9326 0.5332
vt 0.9172 0.5429
vt 0.5464 0.7192
vt 0.5636 0.7131
vt 0.0357 0.9821
vt 0.0357 1.0000
vt 0.0000 1.0000
vt 0.0000 0.9821
vt 0.5354 0.9821
vt 0.5354 1.0000
vt 0.4997 1.0000
vt 0.4997 0.9821
vt 0.0714 0.9821
vt 0.0714 1.0000
vt 0.5711 0.9821
vt 0.5711 1.0000
vt 0.1071 0.9821
vt 0.1071 1.0000
vt 0.6068 0.9821
vt 0.6068 1.0000
vt 0.1428 0.9821
vt 0.1428 1.0000
vt 0.6425 0.9821
vt 0.6425 1.0000
vt 0.1785 0.9821
vt 0.1785 1.0000
vt 0.6782 0.9821
vt 0.6782 1.0000
vt 0.2142 0.9821
vt 0.2142 1.0000
vt 0.7139 0.9821
vt 0.7139 1.0000
vt 0.2498 0.9821
vt 0.2498 1.0000
vt 0.7495 0.9821
vt 0.7495 1.0000
vt 0.2855 0.9821
vt 0.2855 1.0000
vt 0.7852 0.9821
vt 0.7852 1.0000
vt 0.3212 0.9821
vt 0.3212 1.0000
vt 0.8209 0.9821
vt 0.8209 1.0000
vt 0.3569 0.9821
vt 0.3569 1.0000
vt 0.8566 0.9821
vt 0.8566 1.0000
vt 0.3926 0.9821
vt 0.3926 1.0000
vt 0.8923 0.9821
vt 0.8923 1.0000
vt 0.4283 0.9821
vt 0.4283 1.0000
vt 0.9280 0.9821
vt 0.9280 1.0000
vt 0.4640 0.9821
vt 0.4640 1.0000
vt 0.9994 0.9821
vt 0.9994 1.0000
vt 0.9637 1.0000
vt 0.9637 0.9821
vt 0.3435 0.9377
vt 0.3435 0.9725
vt 0.3123 0.9725
vt 0.3123 0.9377
vt 0.7804 0.9377
vt 0.7804 0.9725
vt 0.7492 0.9725
vt 0.7492 0.9377
vt 0.3747 0.9377
vt 0.3747 0.9725
vt 0.8116 0.9377
vt 0.8116 0.9725
vt 0.4059 0.9377
vt 0.4059 0.9725
vt 0.8740 0.9377
vt 0.8740 0.9725
vt 0.8428 0.9725
vt 0.8428 0.9377
vt 0.4371 0.9377
vt 0.4371 0.9725
vt 0.0315 0.9377
vt 0.0315 0.9725
vt 0.0003 0.9725
vt 0.0003 0.9377
vt 0.4684 0.9377
vt 0.4684 0.9725
vt 0.0627 0.9377
vt 0.0627 0.9725
vt 0.4996 0.9377
vt 0.4996 0.9725
vt 0.0939 0.9377
vt 0.0939 0.9725
vt 0.5308 0.9377
vt 0.5308 0.9725
vt 0.1251 0.9377
vt 0.1251 0.9725
vt 0.5620 0.9377
vt 0.5620 0.9725
vt 0.1563 0.9377
vt 0.1563 0.9725
vt 0.5932 0.9377
vt 0.5932 0.9725
vt 0.1875 0.9377
vt 0.1875 0.9725
vt 0.6244 0.9377
vt 0.6244 0.9725
vt 0.2187 0.9377
vt 0.2187 0.9725
vt 0.6556 0.9377
vt 0.6556 0.9725
vt 0.2499 0.9377
vt 0.2499 0.9725
vt 0.6868 0.9377
vt 0.6868 0.9725
vt 0.2811 0.9377
vt 0.2811 0.9725
vt 0.7180 0.9377
vt 0.7180 0.9725
vt 0.6284 0.9277
vt 0.6284 0.8760
vt 0.6570 0.8760
vt 0.6570 0.9277
vt 0.2285 0.9276
vt 0.2285 0.8758
vt 0.2571 0.8758
vt 0.2571 0.9276
vt 0.5998 0.9277
vt 0.5999 0.8760
vt 0.1999 0.9276
vt 0.2000 0.8758
vt 0.5713 0.9277
vt 0.5713 0.8760
vt 0.1714 0.9276
vt 0.1714 0.8758
vt 0.5427 0.9277
vt 0.5427 0.8759
vt 0.1428 0.9276
vt 0.1428 0.8758
vt 0.5142 0.9277
vt 0.5142 0.8759
vt 0.1143 0.9276
vt 0.1143 0.8758
vt 0.4856 0.9277
vt 0.4856 0.8759
vt 0.0857 0.9275
vt 0.0857 0.8758
vt 0.4570 0.9277
vt 0.4570 0.8759
vt 0.0571 0.9275
vt 0.0571 0.8758
vt 0.4285 0.9277
vt 0.4285 0.8759
vt 0.0000 0.9275
vt 0.0000 0.8758
vt 0.0286 0.8758
vt 0.0286 0.9275
vt 0.3999 0.9277
vt 0.3999 0.8759
vt 0.7712 0.9278
vt 0.7712 0.8760
vt 0.7998 0.8760
vt 0.7998 0.9278
vt 0.3713 0.9276
vt 0.3714 0.8759
vt 0.7427 0.9278
vt 0.7427 0.8760
vt 0.3428 0.9276
vt 0.3428 0.8759
vt 0.7141 0.9278
vt 0.7141 0.8760
vt 0.3142 0.9276
vt 0.3142 0.8759
vt 0.6855 0.9278
vt 0.6856 0.8760
vt 0.2856 0.9276
vt 0.2857 0.8759
vt 0.4298 0.1502
vt 0.4498 0.2118
vt 0.4498 0.2765
vt 0.4298 0.3381
vt 0.3917 0.3905
vt 0.3393 0.4286
vt 0.2778 0.4486
vt 0.2130 0.4486
vt 0.1514 0.4286
vt 0.0990 0.3905
vt 0.0609 0.3381
vt 0.0409 0.2765
vt 0.0409 0.2118
vt 0.0609 0.1502
vt 0.0990 0.0978
vt 0.1514 0.0597
vt 0.2130 0.0397
vt 0.2778 0.0397
vt 0.3393 0.0597
vt 0.3917 0.0978
vt 0.3393 0.4286
vt 0.2778 0.4486
vt 0.2130 0.4486
vt 0.1514 0.4286
vt 0.0990 0.3905
vt 0.0609 0.3381
vt 0.0409 0.2765
vt 0.0409 0.2118
vt 0.0609 0.1502
vt 0.0990 0.0978
vt 0.1514 0.0597
vt 0.2130 0.0397
vt 0.2778 0.0397
vt 0.3393 0.0597
vt 0.3917 0.0978
vt 0.4298 0.1502
vt 0.4498 0.2118
vt 0.4498 0.2765
vt 0.4298 0.3381
vt 0.3917 0.3905
vn -0.0000 1.0000 -0.0000
vn -0.4339 0.0000 -0.9010
vn -0.3170 0.6827 -0.6583
vn -0.1626 0.6827 -0.7123
vn -0.2225 0.0000 -0.9749
vn 0.4339 0.0000 0.9010
vn 0.3170 0.6827 0.6583
vn 0.1626 0.6827 0.7123
vn 0.2225 0.0000 0.9749
vn -0.6235 0.0000 -0.7818
vn -0.4555 0.6827 -0.5712
vn 0.6235 0.0000 0.7818
vn 0.4555 0.6827 0.5712
vn -0.7818 0.0000 -0.6235
vn -0.5712 0.6827 -0.4555
vn 0.7818 0.0000 0.6235
vn 0.5712 0.6827 0.4555
vn -0.9010 0.0000 -0.4339
vn -0.6583 0.6827 -0.3170
vn 0.9010 0.0000 0.4339
vn 0.6583 0.6827 0.3170
vn -0.9749 0.0000 -0.2225
vn -0.7123 0.6827 -0.1626
vn 0.9749 0.0000 0.2225
vn 0.7123 0.6827 0.1626
vn -1.0000 0.0000 0.0000
vn -0.7306 0.6827 0.0000
vn 1.0000 0.0000 0.0000
vn 0.7306 0.6827 0.0000
vn -0.9749 0.0000 0.2225
vn -0.7123 0.6827 0.1626
vn 0.9749 0.0000 -0.2225
vn 0.7123 0.6827 -0.1626
vn -0.9010 0.0000 0.4339
vn -0.6583 0.6827 0.3170
vn 0.9010 0.0000 -0.4339
vn 0.6583 0.6827 -0.3170
vn -0.7818 0.0000 0.6235
vn -0.5712 0.6827 0.4555
vn 0.7818 0.0000 -0.6235
vn 0.5712 0.6827 -0.4555
vn -0.6235 0.0000 0.7818
vn -0.4555 0.6827 0.5712
vn 0.6235 0.0000 -0.7818
vn 0.4555 0.6827 -0.5712
vn -0.4339 0.0000 0.9010
vn -0.3170 0.6827 0.6583
vn 0.4339 0.0000 -0.9010
vn 0.3170 0.6827 -0.6583
vn -0.2225 0.0000 0.9749
vn -0.1626 0.6827 0.7123
vn 0.2225 0.0000 -0.9749
vn 0.1626 0.6827 -0.7123
vn 0.0000 0.0000 1.0000
vn 0.0000 0.6827 0.7306
vn 0.0000 0.6827 -0.7306
vn 0.0000 0.0000 -1.0000
vn -0.2950 0.7332 0.6127
vn -0.4240 0.7332 0.5316
vn 0.2950 0.7332 -0.6127
vn 0.4240 0.7332 -0.5316
vn -0.1513 0.7332 0.6630
vn 0.1513 0.7332 -0.6630
vn 0.0000 0.7332 0.6800
vn -0.1513 0.7332 -0.6630
vn 0.0000 0.7332 -0.6800
vn 0.1513 0.7332 0.6630
vn -0.2950 0.7332 -0.6127
vn 0.2950 0.7332 0.6127
vn -0.4240 0.7332 -0.5316
vn 0.4240 0.7332 0.5316
vn -0.5316 0.7332 -0.4240
vn 0.5316 0.7332 0.4240
vn -0.6127 0.7332 -0.2950
vn 0.6127 0.7332 0.2950
vn -0.6630 0.7332 -0.1513
vn 0.6630 0.7332 0.1513
vn -0.6800 0.7332 0.0000
vn 0.6800 0.7332 0.0000
vn -0.6630 0.7332 0.1513
vn 0.6630 0.7332 -0.1513
vn -0.6127 0.7332 0.2950
vn 0.6127 0.7332 -0.2950
vn -0.5316 0.7332 0.4240
vn 0.5316 0.7332 -0.4240
s off
f 162/205/133 190/206/133 189/207/133 161/208/133
f 161/208/133 189/207/133 216/209/133 188/210/133
f 176/211/133 204/212/133 203/213/133 175/214/133
f 163/215/133 191/216/133 190/206/133 162/205/133
f 177/217/133 205/218/133 204/212/133 176/211/133
f 164/219/133 192/220/133 191/216/133 163/215/133
f 178/221/133 206/222/133 205/218/133 177/217/133
f 165/223/133 193/224/133 192/220/133 164/219/133
f 179/225/133 207/226/133 206/222/133 178/221/133
f 166/227/133 194/228/133 193/224/133 165/223/133
f 180/229/133 208/230/133 207/226/133 179/225/133
f 167/231/133 195/232/133 194/228/133 166/227/133
f 181/233/133 209/234/133 208/230/133 180/229/133
f 168/235/133 196/236/133 195/232/133 167/231/133
f 182/237/133 210/238/133 209/234/133 181/233/133
f 169/239/133 197/240/133 196/236/133 168/235/133
f 183/241/133 211/242/133 210/238/133 182/237/133
f 170/243/133 198/244/133 197/240/133 169/239/133
f 184/245/133 212/246/133 211/242/133 183/241/133
f 171/247/133 199/248/133 198/244/133 170/243/133
f 185/249/133 213/250/133 212/246/133 184/245/133
f 172/251/133 200/252/133 199/248/133 171/247/133
f 186/253/133 214/254/133 213/250/133 185/249/133
f 173/255/133 201/256/133 200/252/133 172/251/133
f 187/257/133 215/258/133 214/254/133 186/253/133
f 174/259/133 202/260/133 201/256/133 173/255/133
f 188/210/133 216/209/133 215/258/133 187/257/133
f 175/214/133 203/213/133 202/260/133 174/259/133
f 240/261/133 268/262/133 267/263/133 239/264/133
f 227/265/133 255/266/133 254/267/133 226/268/133
f 241/269/133 269/270/133 268/262/133 240/261/133
f 228/271/133 256/272/133 255/266/133 227/265/133
f 242/273/133 270/274/133 269/270/133 241/269/133
f 229/275/133 257/276/133 256/272/133 228/271/133
f 243/277/133 271/278/133 270/274/133 242/273/133
f 230/279/133 258/280/133 257/276/133 229/275/133
f 244/281/133 272/282/133 271/278/133 243/277/133
f 231/283/133 259/284/133 258/280/133 230/279/133
f 218/285/133 246/286/133 245/287/133 217/288/133
f 217/288/133 245/287/133 272/282/133 244/281/133
f 232/289/133 260/290/133 259/284/133 231/283/133
f 219/291/133 247/292/133 246/286/133 218/285/133
f 233/293/133 261/294/133 260/290/133 232/289/133
f 220/295/133 248/296/133 247/292/133 219/291/133
f 234/297/133 262/298/133 261/294/133 233/293/133
f 221/299/133 249/300/133 248/296/133 220/295/133
f 235/301/133 263/302/133 262/298/133 234/297/133
f 222/303/133 250/304/133 249/300/133 221/299/133
f 236/305/133 264/306/133 263/302/133 235/301/133
f 223/307/133 251/308/133 250/304/133 222/303/133
f 237/309/133 265/310/133 264/306/133 236/305/133
f 224/311/133 252/312/133 251/308/133 223/307/133
f 238/313/133 266/314/133 265/310/133 237/309/133
f 225/315/133 253/316/133 252/312/133 224/311/133
f 239/264/133 267/263/133 266/314/133 238/313/133
f 226/268/133 254/267/133 253/316/133 225/315/133
s 1
f 135/317/134 163/318/135 162/319/136 134/320/137
f 149/321/138 177/322/139 176/323/140 148/324/141
f 136/325/142 164/326/143 163/318/135 135/317/134
f 150/327/144 178/328/145 177/322/139 149/321/138
f 137/329/146 165/330/147 164/326/143 136/325/142
f 151/331/148 179/332/149 178/328/145 150/327/144
f 138/333/150 166/334/151 165/330/147 137/329/146
f 152/335/152 180/336/153 179/332/149 151/331/148
f 139/337/154 167/338/155 166/334/151 138/333/150
f 153/339/156 181/340/157 180/336/153 152/335/152
f 140/341/158 168/342/159 167/338/155 139/337/154
f 154/343/160 182/344/161 181/340/157 153/339/156
f 141/345/162 169/346/163 168/342/159 140/341/158
f 155/347/164 183/348/165 182/344/161 154/343/160
f 142/349/166 170/350/167 169/346/163 141/345/162
f 156/351/168 184/352/169 183/348/165 155/347/164
f 143/353/170 171/354/171 170/350/167 142/349/166
f 157/355/172 185/356/173 184/352/169 156/351/168
f 144/357/174 172/358/175 171/354/171 143/353/170
f 158/359/176 186/360/177 185/356/173 157/355/172
f 145/361/178 173/362/179 172/358/175 144/357/174
f 159/363/180 187/364/181 186/360/177 158/359/176
f 146/365/182 174/366/183 173/362/179 145/361/178
f 160/367/184 188/368/185 187/364/181 159/363/180
f 147/369/186 175/370/187 174/366/183 146/365/182
f 134/371/137 162/372/136 161/373/188 133/374/189
f 133/374/189 161/373/188 188/368/185 160/367/184
f 148/324/141 176/323/140 175/370/187 147/369/186
f 201/375/190 229/376/179 228/377/175 200/378/191
f 215/379/192 243/380/181 242/381/177 214/382/193
f 202/383/194 230/384/183 229/376/179 201/375/190
f 216/385/195 244/386/185 243/380/181 215/379/192
f 203/387/196 231/388/187 230/384/183 202/383/194
f 190/389/197 218/390/136 217/391/188 189/392/198
f 189/392/198 217/391/188 244/386/185 216/385/195
f 204/393/199 232/394/140 231/388/187 203/387/196
f 191/395/200 219/396/135 218/397/136 190/398/197
f 205/399/201 233/400/139 232/394/140 204/393/199
f 192/401/202 220/402/143 219/396/135 191/395/200
f 206/403/203 234/404/145 233/400/139 205/399/201
f 193/405/204 221/406/147 220/402/143 192/401/202
f 207/407/205 235/408/149 234/404/145 206/403/203
f 194/409/206 222/410/151 221/406/147 193/405/204
f 208/411/207 236/412/153 235/408/149 207/407/205
f 195/413/208 223/414/155 222/410/151 194/409/206
f 209/415/209 237/416/157 236/412/153 208/411/207
f 196/417/210 224/418/159 223/414/155 195/413/208
f 210/419/211 238/420/161 237/416/157 209/415/209
f 197/421/212 225/422/163 224/418/159 196/417/210
f 211/423/213 239/424/165 238/420/161 210/419/211
f 198/425/214 226/426/167 225/422/163 197/421/212
f 212/427/215 240/428/169 239/424/165 211/423/213
f 199/429/216 227/430/171 226/426/167 198/425/214
f 213/431/217 241/432/173 240/428/169 212/427/215
f 200/378/191 228/377/175 227/430/171 199/429/216
f 214/382/193 242/381/177 241/432/173 213/431/217
f 252/433/211 280/434/160 279/435/156 251/436/209
f 266/437/210 294/438/158 293/439/154 265/440/208
f 253/441/213 281/442/164 280/434/160 252/433/211
f 267/443/212 295/444/162 294/438/158 266/437/210
f 254/445/215 282/446/168 281/442/164 253/441/213
f 268/447/214 296/448/166 295/444/162 267/443/212
f 255/449/217 283/450/172 282/446/168 254/445/215
f 269/451/216 297/452/170 296/448/166 268/447/214
f 256/453/193 284/454/176 283/450/172 255/449/217
f 270/455/191 298/456/174 297/452/170 269/451/216
f 257/457/192 285/458/180 284/454/176 256/453/193
f 271/459/190 299/460/178 298/456/174 270/455/191
f 258/461/195 286/462/184 285/458/180 257/457/192
f 272/463/194 300/464/182 299/460/178 271/459/190
f 259/465/198 287/466/189 286/462/184 258/461/195
f 246/467/199 274/468/141 273/469/186 245/470/196
f 245/470/196 273/469/186 300/464/182 272/463/194
f 260/471/197 288/472/137 287/466/189 259/465/198
f 247/473/201 275/474/138 274/475/141 246/476/199
f 261/477/200 289/478/134 288/472/137 260/471/197
f 248/479/203 276/480/144 275/474/138 247/473/201
f 262/481/202 290/482/142 289/478/134 261/477/200
f 249/483/205 277/484/148 276/480/144 248/479/203
f 263/485/204 291/486/146 290/482/142 262/481/202
f 250/487/207 278/488/152 277/484/148 249/483/205
f 264/489/206 292/490/150 291/486/146 263/485/204
f 251/436/209 279/435/156 278/488/152 250/487/207
f 265/440/208 293/439/154 292/490/150 264/489/206
f 302/491/133 303/492/133 304/493/133 305/494/133 306/495/133 307/496/133 308/497/133 309/498/133 310/499/133 311/500/133 312/501/133 313/502/133 314/503/133 315/504/133 316/505/133 317/506/133 318/507/133 319/508/133 320/509/133 301/510/133
f 322/511/133 323/512/133 324/513/133 325/514/133 326/515/133 327/516/133 328/517/133 329/518/133 330/519/133 331/520/133 332/521/133 333/522/133 334/523/133 335/524/133 336/525/133 337/526/133 338/527/133 339/528/133 340/529/133 321/530/133
