# 3ds Max Wavefront OBJ Exporter v0.97b - (c)2007 guruware
# File Created: 20.02.2017 12:27:41

mtllib Cap.mtl

#
# object Cap
#

v  1.0629 -0.9439 0.8771
v  0.9205 -1.0151 0.4187
v  1.3759 -0.6311 -0.0482
v  1.5887 -0.5885 0.6294
v  0.5315 -1.0726 0.0299
v  0.7944 -0.6663 -0.5713
v  0.0000 -1.0778 -0.1125
v  0.0000 -0.7029 -0.9438
v  -0.5315 -1.0726 0.0299
v  -0.7944 -0.6663 -0.5713
v  -0.9205 -1.0151 0.4187
v  -1.3759 -0.6311 -0.0482
v  -1.0629 -0.9439 0.8771
v  -1.5887 -0.5885 0.6294
v  -0.9205 -0.9248 1.4809
v  -1.3759 -0.5603 1.4233
v  -0.5315 -0.9108 1.8697
v  -0.7944 -0.5398 2.0044
v  -0.0000 -0.9057 2.0120
v  -0.0000 -0.5322 2.2172
v  0.5315 -0.9108 1.8697
v  0.7944 -0.5398 2.0044
v  0.9205 -0.9248 1.4809
v  1.3759 -0.5603 1.4233
v  2.3857 -0.2097 -1.3774
v  2.7547 -0.2097 -0.0000
v  1.3774 -0.2097 -2.3857
v  0.0000 -0.2097 -2.7547
v  -1.3774 -0.2097 -2.3857
v  -2.3857 -0.2097 -1.3774
v  -2.7547 -0.2097 -0.0000
v  -2.3857 -0.2097 1.3774
v  -1.3774 -0.2097 2.3857
v  -0.0000 -0.2097 2.7547
v  1.3774 -0.2097 2.3857
v  2.3857 -0.2097 1.3774
v  2.2373 0.0952 -1.2917
v  2.5834 0.0952 -0.0000
v  1.2917 0.0952 -2.2373
v  0.0000 0.0952 -2.5834
v  -1.2917 0.0952 -2.2373
v  -2.2373 0.0952 -1.2917
v  -2.5834 0.0952 -0.0000
v  -2.2373 0.0952 1.2917
v  -1.2917 0.0952 2.2373
v  -0.0000 0.0952 2.5834
v  1.2917 0.0952 2.2373
v  2.2373 0.0952 1.2917
# 48 vertices

vn 0.3662 -0.9274 0.0769
vn 0.3102 -0.9495 -0.0465
vn 0.3558 -0.9208 -0.1597
vn 0.4406 -0.8970 0.0350
vn 0.2020 -0.9636 -0.1751
vn 0.2462 -0.9209 -0.3022
vn -0.0214 -0.9697 -0.2435
vn 0.0115 -0.9490 -0.3150
vn -0.1745 -0.9616 -0.2118
vn -0.2279 -0.9287 -0.2927
vn -0.2923 -0.9556 -0.0366
vn -0.3543 -0.9206 -0.1640
vn -0.3922 -0.9152 0.0929
vn -0.4369 -0.8987 0.0384
vn -0.3674 -0.8854 0.2849
vn -0.4522 -0.8448 0.2862
vn -0.2339 -0.8277 0.5101
vn -0.3114 -0.7583 0.5727
vn 0.0000 -0.8143 0.5805
vn 0.0021 -0.7156 0.6985
vn 0.2328 -0.8349 0.4987
vn 0.3141 -0.7555 0.5749
vn 0.3646 -0.8857 0.2873
vn 0.4612 -0.8359 0.2976
vn 0.8076 -0.3495 -0.4751
vn 0.9433 -0.3318 -0.0123
vn 0.4640 -0.3586 -0.8100
vn 0.0071 -0.3520 -0.9360
vn -0.4703 -0.3499 -0.8102
vn -0.8089 -0.3447 -0.4763
vn -0.9458 -0.3246 -0.0107
vn -0.8350 -0.2953 0.4644
vn -0.4961 -0.2545 0.8301
vn 0.0012 -0.2309 0.9730
vn 0.4980 -0.2593 0.8275
vn 0.8342 -0.3022 0.4612
vn 0.4871 0.8268 -0.2812
vn 0.5624 0.8268 0.0000
vn 0.2812 0.8268 -0.4871
vn -0.0000 0.8268 -0.5624
vn -0.2812 0.8268 -0.4871
vn -0.4871 0.8268 -0.2812
vn -0.5624 0.8268 -0.0000
vn -0.4871 0.8268 0.2812
vn -0.2812 0.8268 0.4871
vn -0.0000 0.8268 0.5624
vn 0.2812 0.8268 0.4871
vn 0.4871 0.8268 0.2812
# 48 vertex normals

vt 0.7904 0.4013 0.0000
vt 0.7788 0.3567 0.0000
vt 0.8349 0.3133 0.0000
vt 0.8521 0.3849 0.0000
vt 0.7439 0.3177 0.0000
vt 0.7792 0.2552 0.0000
vt 0.6947 0.3008 0.0000
vt 0.6993 0.2147 0.0000
vt 0.6439 0.3120 0.0000
vt 0.6156 0.2461 0.0000
vt 0.6046 0.3468 0.0000
vt 0.5538 0.2976 0.0000
vt 0.5879 0.3898 0.0000
vt 0.5284 0.3665 0.0000
vt 0.5997 0.4475 0.0000
vt 0.5459 0.4487 0.0000
vt 0.6347 0.4849 0.0000
vt 0.6017 0.5110 0.0000
vt 0.6830 0.5003 0.0000
vt 0.6809 0.5371 0.0000
vt 0.7328 0.4905 0.0000
vt 0.7625 0.5202 0.0000
vt 0.7719 0.4573 0.0000
vt 0.8250 0.4645 0.0000
vt 0.9495 0.1926 0.0000
vt 0.9761 0.3369 0.0000
vt 0.8517 0.0803 0.0000
vt 0.7094 0.0332 0.0000
vt 0.5632 0.0642 0.0000
vt 0.4543 0.1642 0.0000
vt 0.4111 0.3038 0.0000
vt 0.4430 0.4455 0.0000
vt 0.5407 0.5519 0.0000
vt 0.6775 0.5962 0.0000
vt 0.8184 0.5677 0.0000
vt 0.9274 0.4735 0.0000
vt 0.5182 0.8651 0.0000
vt 0.4098 0.9544 0.0000
vt 0.3968 0.9257 0.0000
vt 0.4925 0.8468 0.0000
vt 0.2713 0.9775 0.0000
vt 0.2744 0.9461 0.0000
vt 0.1398 0.9283 0.0000
vt 0.1581 0.9026 0.0000
vt 0.0505 0.8199 0.0000
vt 0.0792 0.8068 0.0000
vt 0.0274 0.6814 0.0000
vt 0.0588 0.6844 0.0000
vt 0.0766 0.5499 0.0000
vt 0.1023 0.5682 0.0000
vt 0.1850 0.4606 0.0000
vt 0.1981 0.4893 0.0000
vt 0.3235 0.4374 0.0000
vt 0.3205 0.4689 0.0000
vt 0.4550 0.4867 0.0000
vt 0.4367 0.5124 0.0000
vt 0.5443 0.5951 0.0000
vt 0.5156 0.6081 0.0000
vt 0.5675 0.7336 0.0000
vt 0.5360 0.7305 0.0000
# 60 texture coords

g Cap
usemtl wire_177028149
s 1
f 1/1/1 2/2/2 3/3/3 4/4/4 
f 2/2/2 5/5/5 6/6/6 3/3/3 
f 5/5/5 7/7/7 8/8/8 6/6/6 
f 7/7/7 9/9/9 10/10/10 8/8/8 
f 9/9/9 11/11/11 12/12/12 10/10/10 
f 11/11/11 13/13/13 14/14/14 12/12/12 
f 13/13/13 15/15/15 16/16/16 14/14/14 
f 15/15/15 17/17/17 18/18/18 16/16/16 
f 17/17/17 19/19/19 20/20/20 18/18/18 
f 19/19/19 21/21/21 22/22/22 20/20/20 
f 21/21/21 23/23/23 24/24/24 22/22/22 
f 23/23/23 1/1/1 4/4/4 24/24/24 
f 4/4/4 3/3/3 25/25/25 26/26/26 
f 3/3/3 6/6/6 27/27/27 25/25/25 
f 6/6/6 8/8/8 28/28/28 27/27/27 
f 8/8/8 10/10/10 29/29/29 28/28/28 
f 10/10/10 12/12/12 30/30/30 29/29/29 
f 12/12/12 14/14/14 31/31/31 30/30/30 
f 14/14/14 16/16/16 32/32/32 31/31/31 
f 16/16/16 18/18/18 33/33/33 32/32/32 
f 18/18/18 20/20/20 34/34/34 33/33/33 
f 20/20/20 22/22/22 35/35/35 34/34/34 
f 22/22/22 24/24/24 36/36/36 35/35/35 
f 24/24/24 4/4/4 26/26/26 36/36/36 
f 26/37/26 25/38/25 37/39/37 38/40/38 
f 25/38/25 27/41/27 39/42/39 37/39/37 
f 27/41/27 28/43/28 40/44/40 39/42/39 
f 28/43/28 29/45/29 41/46/41 40/44/40 
f 29/45/29 30/47/30 42/48/42 41/46/41 
f 30/47/30 31/49/31 43/50/43 42/48/42 
f 31/49/31 32/51/32 44/52/44 43/50/43 
f 32/51/32 33/53/33 45/54/45 44/52/44 
f 33/53/33 34/55/34 46/56/46 45/54/45 
f 34/55/34 35/57/35 47/58/47 46/56/46 
f 35/57/35 36/59/36 48/60/48 47/58/47 
f 36/59/36 26/37/26 38/40/38 48/60/48 
f 23/23/23 21/21/21 19/19/19 17/17/17 15/15/15 13/13/13 11/11/11 9/9/9 7/7/7 5/5/5 2/2/2 1/1/1 
f 38/40/38 37/39/37 39/42/39 40/44/40 41/46/41 42/48/42 43/50/43 44/52/44 45/54/45 46/56/46 47/58/47 48/60/48 
# 38 polygons

