%YAML 1.1
%TAG !u! tag:unity3d.com,2011:
--- !u!21 &2100000
Material:
  serializedVersion: 6
  m_ObjectHideFlags: 0
  m_PrefabParentObject: {fileID: 0}
  m_PrefabInternal: {fileID: 0}
  m_Name: Golem_material_blue
  m_Shader: {fileID: 46, guid: 0000000000000000f000000000000000, type: 0}
  m_ShaderKeywords: _EMISSION _METALLICGLOSSMAP _NORMALMAP
  m_LightmapFlags: 1
  m_CustomRenderQueue: -1
  stringTagMap: {}
  m_SavedProperties:
    serializedVersion: 2
    m_TexEnvs:
    - first:
        name: _BumpMap
      second:
        m_Texture: {fileID: 2800000, guid: a16f33879f7de844e8715114d634b920, type: 3}
        m_Scale: {x: 1, y: 1}
        m_Offset: {x: 0, y: 0}
    - first:
        name: _DetailAlbedoMap
      second:
        m_Texture: {fileID: 0}
        m_Scale: {x: 1, y: 1}
        m_Offset: {x: 0, y: 0}
    - first:
        name: _DetailMask
      second:
        m_Texture: {fileID: 0}
        m_Scale: {x: 1, y: 1}
        m_Offset: {x: 0, y: 0}
    - first:
        name: _DetailNormalMap
      second:
        m_Texture: {fileID: 0}
        m_Scale: {x: 1, y: 1}
        m_Offset: {x: 0, y: 0}
    - first:
        name: _EmissionMap
      second:
        m_Texture: {fileID: 2800000, guid: 488ca717ed0637342a67e6a60834d8ab, type: 3}
        m_Scale: {x: 1, y: 1}
        m_Offset: {x: 0, y: 0}
    - first:
        name: _MainTex
      second:
        m_Texture: {fileID: 2800000, guid: ef24e6575c97fd846973ec246cc6f6f2, type: 3}
        m_Scale: {x: 1, y: 1}
        m_Offset: {x: 0, y: 0}
    - first:
        name: _MetallicGlossMap
      second:
        m_Texture: {fileID: 2800000, guid: bcd290b3391cf944499267a87dd04246, type: 3}
        m_Scale: {x: 1, y: 1}
        m_Offset: {x: 0, y: 0}
    - first:
        name: _OcclusionMap
      second:
        m_Texture: {fileID: 2800000, guid: 5a65781ea7bd1f341a183ded4aec0771, type: 3}
        m_Scale: {x: 1, y: 1}
        m_Offset: {x: 0, y: 0}
    - first:
        name: _ParallaxMap
      second:
        m_Texture: {fileID: 0}
        m_Scale: {x: 1, y: 1}
        m_Offset: {x: 0, y: 0}
    m_Floats:
    - first:
        name: _BumpScale
      second: 1
    - first:
        name: _Cutoff
      second: 0.5
    - first:
        name: _DetailNormalMapScale
      second: 1
    - first:
        name: _DstBlend
      second: 0
    - first:
        name: _GlossMapScale
      second: 0
    - first:
        name: _Glossiness
      second: 0
    - first:
        name: _GlossyReflections
      second: 1
    - first:
        name: _Metallic
      second: 0
    - first:
        name: _Mode
      second: 0
    - first:
        name: _OcclusionStrength
      second: 1
    - first:
        name: _Parallax
      second: 0.02
    - first:
        name: _SmoothnessTextureChannel
      second: 0
    - first:
        name: _SpecularHighlights
      second: 1
    - first:
        name: _SrcBlend
      second: 1
    - first:
        name: _UVSec
      second: 0
    - first:
        name: _ZWrite
      second: 1
    m_Colors:
    - first:
        name: _Color
      second: {r: 1, g: 1, b: 1, a: 1}
    - first:
        name: _EmissionColor
      second: {r: 0.23749998, g: 0.24172422, b: 0.85, a: 1}
