# 3ds Max Wavefront OBJ Exporter v0.97b - (c)2007 guruware
# File Created: 20.02.2017 13:02:38

mtllib Basic Small.mtl

#
# object Basic_S
#

v  2.2434 -0.0000 -0.0546
v  2.1121 -0.0000 -0.8240
v  2.1199 1.5884 -0.8162
v  2.2751 1.5884 -0.0527
v  1.7156 -0.0000 -1.4883
v  1.6859 1.5883 -1.4276
v  1.1391 -0.0000 -1.9971
v  1.1163 1.5861 -1.8595
v  0.4122 -0.0000 -2.2649
v  0.4858 1.5793 -2.3164
v  -0.3738 -0.0000 -2.2757
v  -0.3267 1.5727 -2.3300
v  -1.1143 -0.0000 -2.0000
v  -1.0630 1.5705 -1.9843
v  -1.7197 -0.0000 -1.4992
v  -1.5900 1.5699 -1.4181
v  -2.1099 -0.0000 -0.8219
v  -2.0928 1.5710 -0.8231
v  -2.2644 -0.0000 -0.0521
v  -2.2581 1.5669 -0.0512
v  -2.1021 -0.0000 0.7231
v  -2.0857 1.5577 0.7276
v  -1.6838 -0.0018 1.4026
v  -1.5940 1.5487 1.3561
v  -1.0616 -0.0023 1.9034
v  -0.9920 1.5501 1.8393
v  -0.3302 -0.0001 2.1732
v  -0.2826 1.5638 2.0476
v  0.4208 -0.0001 2.1154
v  0.4328 1.5788 2.0967
v  1.1386 -0.0000 1.8945
v  1.1590 1.5883 1.9168
v  1.7220 -0.0000 1.3908
v  1.7501 1.5884 1.4099
v  2.1512 -0.0000 0.7299
v  2.1149 1.5884 0.7158
v  2.1548 3.2025 -0.8376
v  2.2833 3.2037 -0.0546
v  1.7584 3.2035 -1.5081
v  1.1628 3.1985 -1.9712
v  0.4764 3.1591 -2.3150
v  -0.3221 3.1487 -2.3019
v  -1.0862 3.1517 -2.0291
v  -1.6891 3.1681 -1.5019
v  -2.0262 3.1883 -0.8040
v  -2.2724 3.1636 -0.0583
v  -2.1191 3.1588 0.7223
v  -1.7106 3.1519 1.4076
v  -1.0883 3.1618 1.8982
v  -0.3685 3.1709 2.2040
v  0.4102 3.1869 2.2037
v  1.1418 3.2019 1.9260
v  1.7445 3.2049 1.4127
v  2.1400 3.2051 0.7258
v  2.4271 3.3237 -0.0546
v  2.2854 3.3218 -0.8870
v  2.3191 3.8458 -0.9002
v  2.4691 3.8462 -0.0546
v  1.8975 3.3067 -1.6306
v  1.8854 3.8340 -1.6325
v  1.2581 3.3089 -2.1442
v  1.2604 3.8181 -2.1810
v  0.4954 3.2818 -2.4409
v  0.4828 3.8018 -2.4857
v  -0.3523 3.2621 -2.4545
v  -0.3746 3.7846 -2.4803
v  -1.1658 3.2725 -2.1580
v  -1.1907 3.7826 -2.1798
v  -1.8278 3.2885 -1.6128
v  -1.8436 3.7847 -1.6205
v  -2.1912 3.3304 -0.8620
v  -2.2713 3.7933 -0.8892
v  -2.4162 3.2891 -0.0584
v  -2.4209 3.7958 -0.0578
v  -2.2595 3.2848 0.7708
v  -2.2933 3.8040 0.7816
v  -1.8297 3.2760 1.5008
v  -1.8595 3.7953 1.5156
v  -1.1833 3.2760 2.0497
v  -1.1960 3.7841 2.0420
v  -0.4008 3.2858 2.3583
v  -0.4195 3.8249 2.3841
v  0.4281 3.3134 2.3299
v  0.4191 3.8027 2.3094
v  1.2173 3.3164 2.0607
v  1.2218 3.8352 2.0682
v  1.8673 3.3174 1.5159
v  1.8852 3.8427 1.5310
v  2.2791 3.3244 0.7764
v  2.2991 3.8345 0.7837
v  1.5461 3.9611 -0.6182
v  1.6428 3.9424 -0.0550
v  1.5444 3.9504 0.5078
v  1.2577 3.9390 1.0019
v  0.8226 3.9587 1.3695
v  0.2897 3.9450 1.5611
v  -0.2761 3.9457 1.5687
v  -0.8088 3.9371 1.3696
v  -1.2449 3.9330 1.0002
v  -1.5312 3.9351 0.5048
v  -1.6308 3.9346 -0.0585
v  -1.5304 3.9326 -0.6221
v  -1.2388 3.9232 -1.1173
v  -0.7906 3.9201 -1.4843
v  -0.2450 3.9218 -1.6782
v  0.3241 3.9426 -1.6774
v  0.8486 3.9535 -1.4809
v  1.2694 3.9459 -1.1123
v  0.5099 0.0110 -2.4663
v  -0.3990 0.0110 -2.4110
v  -0.3597 0.8467 -2.3585
v  0.5432 0.8477 -2.4583
v  -1.2808 0.0110 -2.1561
v  -1.2595 0.8464 -2.1513
v  -2.3254 0.0110 0.7338
v  -1.7975 0.0088 1.4963
v  -1.7407 0.8274 1.4720
v  -2.3078 0.8363 0.7353
v  -1.1155 0.0077 2.1276
v  -1.0873 0.8260 2.1299
v  1.8464 0.0110 1.5790
v  2.2503 0.0110 0.7659
v  2.2052 0.8477 0.7491
v  1.8523 0.8477 1.5805
v  2.4617 0.0110 -0.1175
v  2.4630 0.8478 -0.1172
v  -0.3333 1.6666 -2.3782
v  0.5748 1.6748 -2.4470
v  -1.2380 1.6664 -2.1503
v  -1.7449 1.6421 1.4766
v  -2.2916 1.6548 0.7287
v  -1.0889 1.6419 2.1254
v  2.2379 1.6845 0.7610
v  1.8489 1.6845 1.5786
v  2.4637 1.6845 -0.1169
v  -0.3245 2.4811 -2.3781
v  0.5824 2.4941 -2.4285
v  -1.2314 2.4827 -2.1536
v  -1.7576 2.4650 1.4684
v  -2.2761 2.4786 0.7122
v  -1.1129 2.4667 2.1162
v  2.2304 2.5212 0.7587
v  1.8295 2.5212 1.5694
v  2.4620 2.5212 -0.1174
v  -0.3466 3.3017 -2.4153
v  0.5421 3.3175 -2.3718
v  -1.1923 3.3053 -2.0806
v  -1.8111 3.3081 1.4849
v  -2.2293 3.3161 0.6949
v  -1.1027 3.3115 2.0289
v  2.2524 3.3579 0.7667
v  1.7740 3.3579 1.5168
v  2.3697 3.3579 -0.1152
# 153 vertices

vn 0.9998 0.0019 -0.0159
vn 0.9242 0.0175 -0.3815
vn 0.9239 -0.0224 -0.3819
vn 0.9998 -0.0146 -0.0074
vn 0.7349 0.0696 -0.6745
vn 0.7292 -0.0176 -0.6841
vn 0.5471 0.0673 -0.8343
vn 0.5503 -0.0108 -0.8349
vn 0.2466 -0.0102 -0.9690
vn 0.2543 -0.0132 -0.9670
vn -0.1969 -0.0407 -0.9796
vn -0.2004 -0.0143 -0.9796
vn -0.5548 0.0165 -0.8318
vn -0.5584 -0.0128 -0.8294
vn -0.7619 0.0519 -0.6456
vn -0.7728 0.0002 -0.6346
vn -0.9188 0.0179 -0.3942
vn -0.9175 0.0131 -0.3975
vn -0.9999 -0.0135 -0.0071
vn -0.9998 0.0011 -0.0213
vn -0.9249 0.0055 0.3801
vn -0.9254 -0.0137 0.3788
vn -0.7415 0.0440 0.6694
vn -0.7408 -0.0165 0.6714
vn -0.4804 0.0754 0.8738
vn -0.4844 -0.0201 0.8746
vn -0.1573 0.0758 0.9846
vn -0.1718 -0.0338 0.9845
vn 0.1271 0.0316 0.9914
vn 0.1283 -0.0404 0.9909
vn 0.4564 -0.0116 0.8897
vn 0.4657 -0.0278 0.8845
vn 0.7604 -0.0068 0.6494
vn 0.7658 -0.0126 0.6429
vn 0.9398 0.0090 0.3415
vn 0.9396 -0.0077 0.3421
vn 0.8970 -0.2739 -0.3468
vn 0.9699 -0.2433 0.0028
vn 0.6940 -0.3294 -0.6402
vn 0.5011 -0.3150 -0.8060
vn 0.2248 -0.2492 -0.9420
vn -0.1881 -0.2246 -0.9561
vn -0.5219 -0.2636 -0.8112
vn -0.7618 -0.2764 -0.5858
vn -0.8980 -0.2388 -0.3695
vn -0.9736 -0.2233 -0.0458
vn -0.9042 -0.2414 0.3523
vn -0.7216 -0.2768 0.6346
vn -0.4738 -0.3109 0.8239
vn -0.1733 -0.3128 0.9339
vn 0.1466 -0.2802 0.9487
vn 0.4680 -0.2593 0.8448
vn 0.7455 -0.2550 0.6158
vn 0.9109 -0.2474 0.3301
vn 0.9617 -0.2739 0.0061
vn 0.9036 -0.2800 -0.3242
vn 0.7863 0.5470 -0.2873
vn 0.8366 0.5477 0.0102
vn 0.7207 -0.3028 -0.6236
vn 0.6417 0.5377 -0.5469
vn 0.4735 -0.3102 -0.8244
vn 0.4332 0.5099 -0.7432
vn 0.1813 -0.2837 -0.9416
vn 0.1546 0.5027 -0.8505
vn -0.1744 -0.2639 -0.9486
vn -0.1588 0.5138 -0.8430
vn -0.4966 -0.2673 -0.8258
vn -0.4455 0.5087 -0.7367
vn -0.7584 -0.2951 -0.5810
vn -0.6884 0.4737 -0.5492
vn -0.8924 -0.3022 -0.3351
vn -0.8401 0.4454 -0.3095
vn -0.9620 -0.2698 -0.0423
vn -0.8787 0.4768 -0.0234
vn -0.9089 -0.2528 0.3315
vn -0.8138 0.5035 0.2900
vn -0.7357 -0.2623 0.6243
vn -0.6547 0.5032 0.5640
vn -0.4937 -0.2666 0.8277
vn -0.4429 0.5093 0.7378
vn -0.1646 -0.2542 0.9530
vn -0.1352 0.5266 0.8393
vn 0.1767 -0.2235 0.9586
vn 0.1604 0.5199 0.8390
vn 0.4714 -0.2443 0.8474
vn 0.3956 0.5416 0.7417
vn 0.7407 -0.2709 0.6147
vn 0.6370 0.5593 0.5304
vn 0.9055 -0.2706 0.3269
vn 0.7820 0.5540 0.2854
vn 0.3176 0.9405 -0.1201
vn 0.3223 0.9466 0.0084
vn 0.3062 0.9451 0.1142
vn 0.2593 0.9413 0.2159
vn 0.1847 0.9128 0.3642
vn 0.0911 0.8849 0.4567
vn -0.0661 0.8979 0.4353
vn -0.2412 0.8851 0.3979
vn -0.3443 0.8881 0.3045
vn -0.4246 0.8932 0.1479
vn -0.4845 0.8747 -0.0098
vn -0.4708 0.8650 -0.1732
vn -0.3759 0.8748 -0.3056
vn -0.2335 0.8958 -0.3780
vn -0.0817 0.9084 -0.4099
vn 0.0735 0.9076 -0.4133
vn 0.2165 0.9084 -0.3576
vn 0.2949 0.9218 -0.2514
vn -0.0866 0.0379 -0.9955
vn -0.1735 0.0381 -0.9841
vn -0.1728 0.0106 -0.9849
vn -0.0912 0.0118 -0.9958
vn -0.2591 0.0379 -0.9651
vn -0.2532 0.0092 -0.9673
vn -0.8203 0.0336 0.5709
vn -0.7656 0.0337 0.6424
vn -0.7668 0.0129 0.6417
vn -0.8177 0.0148 0.5754
vn -0.7047 0.0336 0.7087
vn -0.7105 0.0109 0.7035
vn 0.9060 0.0425 0.4211
vn 0.9388 0.0426 0.3417
vn 0.9395 0.0080 0.3423
vn 0.9083 0.0084 0.4181
vn 0.9647 0.0425 0.2597
vn 0.9644 0.0075 0.2641
vn -0.1683 -0.0026 -0.9857
vn -0.0829 0.0029 -0.9965
vn -0.2524 -0.0082 -0.9676
vn -0.7706 0.0021 0.6373
vn -0.8217 0.0089 0.5698
vn -0.7140 -0.0047 0.7001
vn 0.9386 -0.0084 0.3449
vn 0.9042 -0.0045 0.4270
vn 0.9655 -0.0121 0.2601
vn -0.1652 -0.0116 -0.9862
vn -0.0640 -0.0123 -0.9979
vn -0.2646 -0.0107 -0.9643
vn -0.7728 -0.0140 0.6344
vn -0.8323 -0.0154 0.5540
vn -0.7056 -0.0125 0.7085
vn 0.9377 -0.0085 0.3472
vn 0.8963 -0.0086 0.4434
vn 0.9689 -0.0084 0.2473
vn -0.1657 -0.0348 -0.9855
vn -0.0579 -0.0449 -0.9973
vn -0.2715 -0.0243 -0.9621
vn -0.7716 -0.0402 0.6348
vn -0.8351 -0.0525 0.5475
vn -0.6990 -0.0273 0.7146
vn 0.9374 -0.0270 0.3471
vn 0.8936 -0.0338 0.4474
vn 0.9699 -0.0200 0.2425
# 153 vertex normals

vt 0.7235 0.0147 0.0000
vt 0.7785 0.0147 0.0000
vt 0.7785 0.1865 0.0000
vt 0.7235 0.1865 0.0000
vt 0.8336 0.0147 0.0000
vt 0.8336 0.1865 0.0000
vt 0.8886 0.0147 0.0000
vt 0.8886 0.1865 0.0000
vt 0.9436 0.0147 0.0000
vt 0.9436 0.1865 0.0000
vt 0.9987 0.0147 0.0000
vt 0.9987 0.1865 0.0000
vt 0.0081 0.0147 0.0000
vt 0.0632 0.0147 0.0000
vt 0.0632 0.1865 0.0000
vt 0.0081 0.1865 0.0000
vt 0.1182 0.0147 0.0000
vt 0.1182 0.1865 0.0000
vt 0.1732 0.0147 0.0000
vt 0.1732 0.1865 0.0000
vt 0.2283 0.0147 0.0000
vt 0.2283 0.1865 0.0000
vt 0.2833 0.0147 0.0000
vt 0.2833 0.1865 0.0000
vt 0.3383 0.0147 0.0000
vt 0.3383 0.1865 0.0000
vt 0.3933 0.0147 0.0000
vt 0.3933 0.1865 0.0000
vt 0.4484 0.0147 0.0000
vt 0.4484 0.1865 0.0000
vt 0.5034 0.0147 0.0000
vt 0.5034 0.1865 0.0000
vt 0.5584 0.0147 0.0000
vt 0.5584 0.1865 0.0000
vt 0.6135 0.0147 0.0000
vt 0.6135 0.1865 0.0000
vt 0.6685 0.0147 0.0000
vt 0.6685 0.1865 0.0000
vt 0.7785 0.3582 0.0000
vt 0.7235 0.3582 0.0000
vt 0.8336 0.3582 0.0000
vt 0.8886 0.3582 0.0000
vt 0.9436 0.3582 0.0000
vt 0.9987 0.3582 0.0000
vt 0.0632 0.3582 0.0000
vt 0.0081 0.3582 0.0000
vt 0.1182 0.3582 0.0000
vt 0.1732 0.3582 0.0000
vt 0.2283 0.3582 0.0000
vt 0.2833 0.3582 0.0000
vt 0.3383 0.3582 0.0000
vt 0.3933 0.3582 0.0000
vt 0.4484 0.3582 0.0000
vt 0.5034 0.3582 0.0000
vt 0.5584 0.3582 0.0000
vt 0.6135 0.3582 0.0000
vt 0.6685 0.3582 0.0000
vt 0.7235 0.3753 0.0000
vt 0.7785 0.3753 0.0000
vt 0.7785 0.4270 0.0000
vt 0.7235 0.4270 0.0000
vt 0.8336 0.3753 0.0000
vt 0.8336 0.4270 0.0000
vt 0.8886 0.3753 0.0000
vt 0.8886 0.4270 0.0000
vt 0.9436 0.3753 0.0000
vt 0.9436 0.4270 0.0000
vt 0.9987 0.3753 0.0000
vt 0.9987 0.4270 0.0000
vt 0.0081 0.3753 0.0000
vt 0.0632 0.3753 0.0000
vt 0.0632 0.4270 0.0000
vt 0.0081 0.4270 0.0000
vt 0.1182 0.3753 0.0000
vt 0.1182 0.4270 0.0000
vt 0.1732 0.3753 0.0000
vt 0.1732 0.4270 0.0000
vt 0.2283 0.3753 0.0000
vt 0.2283 0.4270 0.0000
vt 0.2833 0.3753 0.0000
vt 0.2833 0.4270 0.0000
vt 0.3383 0.3753 0.0000
vt 0.3383 0.4270 0.0000
vt 0.3933 0.3753 0.0000
vt 0.3933 0.4270 0.0000
vt 0.4484 0.3753 0.0000
vt 0.4484 0.4270 0.0000
vt 0.5034 0.3753 0.0000
vt 0.5034 0.4270 0.0000
vt 0.5584 0.3753 0.0000
vt 0.5584 0.4270 0.0000
vt 0.6135 0.3753 0.0000
vt 0.6135 0.4270 0.0000
vt 0.6685 0.3753 0.0000
vt 0.6685 0.4270 0.0000
vt 0.7785 0.4441 0.0000
vt 0.7235 0.4441 0.0000
vt 0.6685 0.4441 0.0000
vt 0.6135 0.4441 0.0000
vt 0.5584 0.4441 0.0000
vt 0.5034 0.4441 0.0000
vt 0.4484 0.4441 0.0000
vt 0.3933 0.4441 0.0000
vt 0.3383 0.4441 0.0000
vt 0.2833 0.4441 0.0000
vt 0.2283 0.4441 0.0000
vt 0.1732 0.4441 0.0000
vt 0.1182 0.4441 0.0000
vt 0.0632 0.4441 0.0000
vt 0.0081 0.4441 0.0000
vt 0.9987 0.4441 0.0000
vt 0.9436 0.4441 0.0000
vt 0.8886 0.4441 0.0000
vt 0.8336 0.4441 0.0000
vt 0.9403 0.4870 0.0000
vt 0.9394 0.6439 0.0000
vt 0.7107 0.6438 0.0000
vt 0.7117 0.4869 0.0000
vt 0.9384 0.8008 0.0000
vt 0.7098 0.8007 0.0000
vt 0.9403 0.4883 0.0000
vt 0.9394 0.6452 0.0000
vt 0.7107 0.6450 0.0000
vt 0.7116 0.4881 0.0000
vt 0.9384 0.8021 0.0000
vt 0.7098 0.8019 0.0000
vt 0.9392 0.4856 0.0000
vt 0.9382 0.6425 0.0000
vt 0.7098 0.6423 0.0000
vt 0.7108 0.4854 0.0000
vt 0.9373 0.7994 0.0000
vt 0.7089 0.7992 0.0000
vt 0.4820 0.6436 0.0000
vt 0.4830 0.4867 0.0000
vt 0.4811 0.8005 0.0000
vt 0.4820 0.6448 0.0000
vt 0.4830 0.4879 0.0000
vt 0.4811 0.8017 0.0000
vt 0.4814 0.6421 0.0000
vt 0.4824 0.4852 0.0000
vt 0.4805 0.7990 0.0000
vt 0.2533 0.6434 0.0000
vt 0.2543 0.4865 0.0000
vt 0.2524 0.8003 0.0000
vt 0.2533 0.6447 0.0000
vt 0.2543 0.4878 0.0000
vt 0.2524 0.8016 0.0000
vt 0.2530 0.6420 0.0000
vt 0.2540 0.4851 0.0000
vt 0.2521 0.7989 0.0000
vt 0.0246 0.6433 0.0000
vt 0.0256 0.4864 0.0000
vt 0.0237 0.8002 0.0000
vt 0.0246 0.6445 0.0000
vt 0.0256 0.4876 0.0000
vt 0.0237 0.8014 0.0000
vt 0.0246 0.6418 0.0000
vt 0.0256 0.4849 0.0000
vt 0.0237 0.7987 0.0000
# 159 texture coords

g Basic_S
usemtl TowerSpawn_Golem_Mesh_initialShadingGroup
s off
f 1/1/1 2/2/2 3/3/3 4/4/4 
f 2/2/2 5/5/5 6/6/6 3/3/3 
f 5/5/5 7/7/7 8/8/8 6/6/6 
f 7/7/7 9/9/9 10/10/10 8/8/8 
f 9/9/9 11/11/11 12/12/12 10/10/10 
f 11/13/11 13/14/13 14/15/14 12/16/12 
f 13/14/13 15/17/15 16/18/16 14/15/14 
f 15/17/15 17/19/17 18/20/18 16/18/16 
f 17/19/17 19/21/19 20/22/20 18/20/18 
f 19/21/19 21/23/21 22/24/22 20/22/20 
f 21/23/21 23/25/23 24/26/24 22/24/22 
f 23/25/23 25/27/25 26/28/26 24/26/24 
f 25/27/25 27/29/27 28/30/28 26/28/26 
f 27/29/27 29/31/29 30/32/30 28/30/28 
f 29/31/29 31/33/31 32/34/32 30/32/30 
f 31/33/31 33/35/33 34/36/34 32/34/32 
f 33/35/33 35/37/35 36/38/36 34/36/34 
f 35/37/35 1/1/1 4/4/4 36/38/36 
f 4/4/4 3/3/3 37/39/37 38/40/38 
f 3/3/3 6/6/6 39/41/39 37/39/37 
f 6/6/6 8/8/8 40/42/40 39/41/39 
f 8/8/8 10/10/10 41/43/41 40/42/40 
f 10/10/10 12/12/12 42/44/42 41/43/41 
f 12/16/12 14/15/14 43/45/43 42/46/42 
f 14/15/14 16/18/16 44/47/44 43/45/43 
f 16/18/16 18/20/18 45/48/45 44/47/44 
f 18/20/18 20/22/20 46/49/46 45/48/45 
f 20/22/20 22/24/22 47/50/47 46/49/46 
f 22/24/22 24/26/24 48/51/48 47/50/47 
f 24/26/24 26/28/26 49/52/49 48/51/48 
f 26/28/26 28/30/28 50/53/50 49/52/49 
f 28/30/28 30/32/30 51/54/51 50/53/50 
f 30/32/30 32/34/32 52/55/52 51/54/51 
f 32/34/32 34/36/34 53/56/53 52/55/52 
f 34/36/34 36/38/36 54/57/54 53/56/53 
f 36/38/36 4/4/4 38/40/38 54/57/54 
f 55/58/55 56/59/56 57/60/57 58/61/58 
f 56/59/56 59/62/59 60/63/60 57/60/57 
f 59/62/59 61/64/61 62/65/62 60/63/60 
f 61/64/61 63/66/63 64/67/64 62/65/62 
f 63/66/63 65/68/65 66/69/66 64/67/64 
f 65/70/65 67/71/67 68/72/68 66/73/66 
f 67/71/67 69/74/69 70/75/70 68/72/68 
f 69/74/69 71/76/71 72/77/72 70/75/70 
f 71/76/71 73/78/73 74/79/74 72/77/72 
f 73/78/73 75/80/75 76/81/76 74/79/74 
f 75/80/75 77/82/77 78/83/78 76/81/76 
f 77/82/77 79/84/79 80/85/80 78/83/78 
f 79/84/79 81/86/81 82/87/82 80/85/80 
f 81/86/81 83/88/83 84/89/84 82/87/82 
f 83/88/83 85/90/85 86/91/86 84/89/84 
f 85/90/85 87/92/87 88/93/88 86/91/86 
f 87/92/87 89/94/89 90/95/90 88/93/88 
f 89/94/89 55/58/55 58/61/58 90/95/90 
f 38/40/38 37/39/37 56/59/56 55/58/55 
f 37/39/37 39/41/39 59/62/59 56/59/56 
f 39/41/39 40/42/40 61/64/61 59/62/59 
f 40/42/40 41/43/41 63/66/63 61/64/61 
f 41/43/41 42/44/42 65/68/65 63/66/63 
f 42/46/42 43/45/43 67/71/67 65/70/65 
f 43/45/43 44/47/44 69/74/69 67/71/67 
f 44/47/44 45/48/45 71/76/71 69/74/69 
f 45/48/45 46/49/46 73/78/73 71/76/71 
f 46/49/46 47/50/47 75/80/75 73/78/73 
f 47/50/47 48/51/48 77/82/77 75/80/75 
f 48/51/48 49/52/49 79/84/79 77/82/77 
f 49/52/49 50/53/50 81/86/81 79/84/79 
f 50/53/50 51/54/51 83/88/83 81/86/81 
f 51/54/51 52/55/52 85/90/85 83/88/83 
f 52/55/52 53/56/53 87/92/87 85/90/85 
f 53/56/53 54/57/54 89/94/89 87/92/87 
f 54/57/54 38/40/38 55/58/55 89/94/89 
f 91/96/91 92/97/92 58/61/58 57/60/57 
f 92/97/92 93/98/93 90/95/90 58/61/58 
f 93/98/93 94/99/94 88/93/88 90/95/90 
f 94/99/94 95/100/95 86/91/86 88/93/88 
f 95/100/95 96/101/96 84/89/84 86/91/86 
f 96/101/96 97/102/97 82/87/82 84/89/84 
f 97/102/97 98/103/98 80/85/80 82/87/82 
f 98/103/98 99/104/99 78/83/78 80/85/80 
f 99/104/99 100/105/100 76/81/76 78/83/78 
f 100/105/100 101/106/101 74/79/74 76/81/76 
f 101/106/101 102/107/102 72/77/72 74/79/74 
f 102/107/102 103/108/103 70/75/70 72/77/72 
f 103/108/103 104/109/104 68/72/68 70/75/70 
f 104/109/104 105/110/105 66/73/66 68/72/68 
f 105/111/105 106/112/106 64/67/64 66/69/66 
f 106/112/106 107/113/107 62/65/62 64/67/64 
f 107/113/107 108/114/108 60/63/60 62/65/62 
f 108/114/108 91/96/91 57/60/57 60/63/60 
f 109/115/109 110/116/110 111/117/111 112/118/112 
f 110/116/110 113/119/113 114/120/114 111/117/111 
f 115/121/115 116/122/116 117/123/117 118/124/118 
f 116/122/116 119/125/119 120/126/120 117/123/117 
f 121/127/121 122/128/122 123/129/123 124/130/124 
f 122/128/122 125/131/125 126/132/126 123/129/123 
f 112/118/112 111/117/111 127/133/127 128/134/128 
f 111/117/111 114/120/114 129/135/129 127/133/127 
f 118/124/118 117/123/117 130/136/130 131/137/131 
f 117/123/117 120/126/120 132/138/132 130/136/130 
f 124/130/124 123/129/123 133/139/133 134/140/134 
f 123/129/123 126/132/126 135/141/135 133/139/133 
f 128/134/128 127/133/127 136/142/136 137/143/137 
f 127/133/127 129/135/129 138/144/138 136/142/136 
f 131/137/131 130/136/130 139/145/139 140/146/140 
f 130/136/130 132/138/132 141/147/141 139/145/139 
f 134/140/134 133/139/133 142/148/142 143/149/143 
f 133/139/133 135/141/135 144/150/144 142/148/142 
f 137/143/137 136/142/136 145/151/145 146/152/146 
f 136/142/136 138/144/138 147/153/147 145/151/145 
f 140/146/140 139/145/139 148/154/148 149/155/149 
f 139/145/139 141/147/141 150/156/150 148/154/148 
f 143/149/143 142/148/142 151/157/151 152/158/152 
f 142/148/142 144/150/144 153/159/153 151/157/151 
# 114 polygons

