%YAML 1.1
%TAG !u! tag:unity3d.com,2011:
--- !u!1 &188548
GameObject:
  m_ObjectHideFlags: 0
  m_PrefabParentObject: {fileID: 0}
  m_PrefabInternal: {fileID: 100100000}
  serializedVersion: 4
  m_Component:
  - 4: {fileID: 413160}
  - 33: {fileID: 3357562}
  - 23: {fileID: 2348098}
  - 114: {fileID: 11466254}
  m_Layer: 0
  m_Name: Nettle_VCB_UV4_LeafTurb
  m_TagString: Untagged
  m_Icon: {fileID: 0}
  m_NavMeshLayer: 0
  m_StaticEditorFlags: 0
  m_IsActive: 1
--- !u!4 &413160
Transform:
  m_ObjectHideFlags: 1
  m_PrefabParentObject: {fileID: 0}
  m_PrefabInternal: {fileID: 100100000}
  m_GameObject: {fileID: 188548}
  m_LocalRotation: {x: 0, y: 0, z: 0, w: 1}
  m_LocalPosition: {x: -0.59246826, y: -0.37400055, z: -0.5375366}
  m_LocalScale: {x: 0.8118983, y: 0.81189835, z: 0.81189835}
  m_LocalEulerAnglesHint: {x: 0, y: 0, z: 0}
  m_Children: []
  m_Father: {fileID: 0}
  m_RootOrder: 0
--- !u!23 &2348098
MeshRenderer:
  m_ObjectHideFlags: 1
  m_PrefabParentObject: {fileID: 0}
  m_PrefabInternal: {fileID: 100100000}
  m_GameObject: {fileID: 188548}
  m_Enabled: 1
  m_CastShadows: 1
  m_ReceiveShadows: 1
  m_MotionVectors: 1
  m_LightProbeUsage: 1
  m_ReflectionProbeUsage: 1
  m_Materials:
  - {fileID: 2100000, guid: 948f8df8b3b75413bb33e56cbe57a900, type: 2}
  m_SubsetIndices: 
  m_StaticBatchRoot: {fileID: 0}
  m_ProbeAnchor: {fileID: 0}
  m_LightProbeVolumeOverride: {fileID: 0}
  m_ScaleInLightmap: 1
  m_PreserveUVs: 0
  m_IgnoreNormalsForChartDetection: 0
  m_ImportantGI: 0
  m_SelectedWireframeHidden: 0
  m_MinimumChartSize: 4
  m_AutoUVMaxDistance: 0.5
  m_AutoUVMaxAngle: 89
  m_LightmapParameters: {fileID: 0}
  m_SortingLayerID: 0
  m_SortingOrder: 0
--- !u!33 &3357562
MeshFilter:
  m_ObjectHideFlags: 1
  m_PrefabParentObject: {fileID: 0}
  m_PrefabInternal: {fileID: 100100000}
  m_GameObject: {fileID: 188548}
  m_Mesh: {fileID: 4300000, guid: 7808a0c1e0d6848478b63f4b41bdca41, type: 2}
--- !u!114 &11466254
MonoBehaviour:
  m_ObjectHideFlags: 1
  m_PrefabParentObject: {fileID: 0}
  m_PrefabInternal: {fileID: 100100000}
  m_GameObject: {fileID: 188548}
  m_Enabled: 1
  m_EditorHideFlags: 0
  m_Script: {fileID: 11500000, guid: 244de86e001f04c23be71034613874c9, type: 3}
  m_Name: 
  m_EditorClassIdentifier: 
  BendingModeSelected: 2
  Scale: 2
  hasBeenSaved: 1
  savePath: 4173736574732f416476616e63656420466f6c69616765205368616465722076342f44656d6f732f30352057696e642044656d6f2f4d6f646966696564204d65736865732f4e6574746c65205556345f4c65616654757262756c656e63652e6173736574
  fileName: 4e6574746c65205556345f4c65616654757262756c656e63652e6173736574
  hasSubmeshes: 0
  mergeSubMeshes: 0
  has2ndUV: 1
  delete2ndUV: 0
  storeUV4: 0
  convert2simpletree: 0
  convert2foliage: 0
  sourceTex0: {fileID: 0}
  sourceTex1: {fileID: 0}
  sourceTexDiffuse: {fileID: 0}
  textureSplitHalf: 0
  showTextureCombine: 0
  TextureSplitSelected: 0
  generateUV2: 0
  transTexPath: 
  combinedTexPath: 
  simpleTreeConverted: 0
  foliageTreeConverted: 0
  foliageTreeUV4Converted: 0
  Set1stBendingSelected: 1
  Mask2ndBendingSelected: 2
  adjustScale: 0
  adjustVertexColors: 0
  adjustBending: 1
  FoldSetBending: 0
  showGizmos: 0
  maxBendingValueY: 0.25
  maxBendingValueX: 0.15
  curvY:
    m_Curve:
    - time: 0
      value: 0
      inSlope: 0
      outSlope: 0
      tangentMode: 0
    - time: 1
      value: 1
      inSlope: 2.043751
      outSlope: 2.043751
      tangentMode: 0
    m_PreInfinity: 2
    m_PostInfinity: 2
  curvX:
    m_Curve:
    - time: 0
      value: 1
      inSlope: 0
      outSlope: 0
      tangentMode: 0
    - time: 1
      value: 1
      inSlope: 0
      outSlope: 0
      tangentMode: 0
    m_PreInfinity: 2
    m_PostInfinity: 2
  curvZ:
    m_Curve:
    - time: 0
      value: 0
      inSlope: 0
      outSlope: 0
      tangentMode: 0
    - time: 1
      value: 1
      inSlope: 0
      outSlope: 0
      tangentMode: 0
    m_PreInfinity: 2
    m_PostInfinity: 2
  adjustBlueValue: 0
  adjustGreenValue: 0
  adjustRedValue: 0
  adjustAlphaValue: 0
  Set1stBendingAlongY: 1
  Set1stBendingRelative2Pivot: 0
  VertexBlueVals:
  - 0.18039216
  - 0.13725491
  - 0.1254902
  - 0
  - 0.10980392
  - 0.11764706
  - 0.101960786
  - 0.101960786
  - 0.101960786
  - 0.12941177
  - 0
  - 0.13725491
  - 0.14901961
  - 0
  - 0.2509804
  - 0.09411765
  - 0.09411765
  - 0
  - 0.12156863
  - 0.08627451
  - 0.08627451
  - 0.101960786
  - 0.10980392
  - 0.10980392
  - 0.101960786
  - 0
  - 0.2
  - 0.18039216
  - 0.08627451
  - 0.101960786
  - 0.09411765
  - 0.09411765
  - 0.09411765
  - 0.07058824
  - 0.050980393
  - 0
  - 0.08627451
  - 0.078431375
  - 0.06666667
  - 0.18039216
  - 0.1254902
  - 0.13725491
  - 0
  - 0.11764706
  - 0.10980392
  - 0.101960786
  - 0.101960786
  - 0.12941177
  - 0.101960786
  - 0
  - 0.13725491
  - 0
  - 0.14901961
  - 0.2509804
  - 0.09411765
  - 0
  - 0.09411765
  - 0.12156863
  - 0.08627451
  - 0.08627451
  - 0.101960786
  - 0.10980392
  - 0.101960786
  - 0.10980392
  - 0
  - 0.2
  - 0.18039216
  - 0.101960786
  - 0.08627451
  - 0.09411765
  - 0.09411765
  - 0.09411765
  - 0.050980393
  - 0.07058824
  - 0
  - 0.078431375
  - 0.08627451
  - 0.06666667
  - 0
  - 0
  - 0
  - 0
  - 0
  - 0
  - 0
  - 0
  - 0
  - 0
  - 0
  - 0
  - 0
  - 0
  - 0
  - 0
  - 0
  - 0
  - 0
  - 0
  - 0
  - 0
  - 0
  - 0
  - 0
  - 0
  - 0
  - 0
  - 0
  - 0
  - 0
  - 0
  - 0
  - 0
  - 0
  - 0
  - 0
  - 0
  - 0
  - 0
  - 0
  - 0
  - 0
  - 0
  - 0
  - 0
  - 0
  - 0
  - 0
  - 0
  - 0
  - 0
  - 0
  - 0
  - 0
  - 0
  - 0
  - 0.12156863
  - 0.1254902
  - 0.13725491
  - 0
  - 0.1254902
  - 0.12941177
  - 0
  - 0.14509805
  - 0.12156863
  - 0.13725491
  - 0.1254902
  - 0
  - 0.1254902
  - 0
  - 0.12941177
  - 0.14509805
  - 0
  - 0
  - 0
  - 0
  VertexBlueValsStored: 1
  hasChanged: 0
--- !u!1001 &100100000
Prefab:
  m_ObjectHideFlags: 1
  serializedVersion: 2
  m_Modification:
    m_TransformParent: {fileID: 0}
    m_Modifications: []
    m_RemovedComponents: []
  m_ParentPrefab: {fileID: 0}
  m_RootGameObject: {fileID: 188548}
  m_IsPrefabParent: 1
