%YAML 1.1
%TAG !u! tag:unity3d.com,2011:
--- !u!21 &2100000
Material:
  serializedVersion: 6
  m_ObjectHideFlags: 0
  m_PrefabParentObject: {fileID: 0}
  m_PrefabInternal: {fileID: 0}
  m_Name: Foliage Atlas VC
  m_Shader: {fileID: 4800000, guid: 5baf2cbe7fcf64552a4ac70d43d1db0a, type: 3}
  m_ShaderKeywords: _BENDINGCONTROLS_VERTEX_COLORS
  m_LightmapFlags: 5
  m_CustomRenderQueue: -1
  stringTagMap: {}
  m_SavedProperties:
    serializedVersion: 2
    m_TexEnvs:
    - first:
        name: _BumpTransSpecMap
      second:
        m_Texture: {fileID: 2800000, guid: 0949ca3f2993e41abb1f7931537f844e, type: 3}
        m_Scale: {x: 1, y: 1}
        m_Offset: {x: 0, y: 0}
    - first:
        name: _MainTex
      second:
        m_Texture: {fileID: 2800000, guid: fc1799c85c25f444684a12194c3b6904, type: 3}
        m_Scale: {x: 1, y: 1}
        m_Offset: {x: 0, y: 0}
    m_Floats:
    - first:
        name: _BendingControls
      second: 0
    - first:
        name: _Cutoff
      second: 0.3
    - first:
        name: _LeafTurbulence
      second: 0.621
    - first:
        name: _TranslucencyViewDependency
      second: 0.407
    - first:
        name: _Turbo
      second: 1
    m_Colors:
    - first:
        name: _SpecularReflectivity
      second: {r: 0.20392157, g: 0.20392157, b: 0.20392157, a: 1}
    - first:
        name: _TranslucencyColor
      second: {r: 0.59212756, g: 0.827451, b: 0.41534793, a: 1}
